<?xml version="1.0" encoding="UTF-8" standalone="no"?>
<!DOCTYPE svg PUBLIC "-//W3C//DTD SVG 20010904//EN"
"http://www.w3.org/TR/2001/REC-SVG-20010904/DTD/svg10.dtd">
<!-- Created with Inkscape (http://www.inkscape.org/) -->
<svg
   id="svg908"
   sodipodi:version="0.32"
   inkscape:version="0.39"
   width="210mm"
   height="297mm"
   sodipodi:docbase="/home/dcaliste/developpement/visuGTK2/pixmaps/logo"
   sodipodi:docname="logo-2.0.svg"
   xmlns="http://www.w3.org/2000/svg"
   xmlns:cc="http://web.resource.org/cc/"
   xmlns:inkscape="http://www.inkscape.org/namespaces/inkscape"
   xmlns:sodipodi="http://sodipodi.sourceforge.net/DTD/sodipodi-0.dtd"
   xmlns:rdf="http://www.w3.org/1999/02/22-rdf-syntax-ns#"
   xmlns:dc="http://purl.org/dc/elements/1.1/"
   xmlns:xlink="http://www.w3.org/1999/xlink">
  <defs
     id="defs910">
    <linearGradient
       id="linearGradient4767">
      <stop
         style="stop-color:#806436;stop-opacity:1.0000000;"
         offset="0.0000000"
         id="stop4768" />
      <stop
         style="stop-color:#c48e33;stop-opacity:0.0000000;"
         offset="1.0000000"
         id="stop4769" />
    </linearGradient>
    <linearGradient
       id="linearGradient4761">
      <stop
         style="stop-color:#c48e33;stop-opacity:1.0000000;"
         offset="0.0000000"
         id="stop4762" />
      <stop
         style="stop-color:#c48e33;stop-opacity:0.0000000;"
         offset="1.0000000"
         id="stop4763" />
    </linearGradient>
    <linearGradient
       id="linearGradient3792">
      <stop
         style="stop-color:#ffffff;stop-opacity:1.0000000;"
         offset="0.0000000"
         id="stop3793" />
      <stop
         style="stop-color:#565656;stop-opacity:0.40784314;"
         offset="1.0000000"
         id="stop3794" />
    </linearGradient>
    <linearGradient
       id="linearGradient3028">
      <stop
         style="stop-color:#d19d83;stop-opacity:1.0000000;"
         offset="0.0000000"
         id="stop3029" />
      <stop
         style="stop-color:#aa2934;stop-opacity:0.0000000;"
         offset="1.0000000"
         id="stop3030" />
    </linearGradient>
    <linearGradient
       id="linearGradient3020">
      <stop
         style="stop-color:#ff7878;stop-opacity:1.0000000;"
         offset="0.0000000"
         id="stop3021" />
      <stop
         style="stop-color:#631315;stop-opacity:0.85882354;"
         offset="0.50000000"
         id="stop3023" />
      <stop
         style="stop-color:#000000;stop-opacity:1.0000000;"
         offset="1.0000000"
         id="stop3022" />
    </linearGradient>
    <linearGradient
       id="linearGradient2999">
      <stop
         style="stop-color:#ff7878;stop-opacity:1.0000000;"
         offset="0.0000000"
         id="stop3000" />
      <stop
         style="stop-color:#ffc5ca;stop-opacity:0.078431375;"
         offset="1.0000000"
         id="stop3001" />
    </linearGradient>
    <linearGradient
       id="linearGradient2994">
      <stop
         style="stop-color:#d19d83;stop-opacity:1.0000000;"
         offset="0.0000000"
         id="stop2995" />
      <stop
         style="stop-color:#aa2934;stop-opacity:1.0000000;"
         offset="1.0000000"
         id="stop2996" />
    </linearGradient>
    <marker
       style="overflow:visible;"
       id="SemiCircleIn"
       refX="0.0"
       refY="0.0"
       orient="auto"
       inkscape:stockid="SemiCircleIn">
      <path
         transform="scale(0.6)"
         style="fill-rule:evenodd;stroke:#000000;stroke-width:1.0pt;marker-start:none;marker-end:none;"
         d="M -0.37450702,-0.045692580 C -0.37450702,2.7143074 1.8654930,4.9543074 4.6254930,4.9543074 L 4.6254930,-5.0456926 C 1.8654930,-5.0456926 -0.37450702,-2.8056926 -0.37450702,-0.045692580 z "
         id="path2958"
         sodipodi:nodetypes="cccc" />
    </marker>
    <linearGradient
       id="linearGradient1588">
      <stop
         style="stop-color:#f69c72;stop-opacity:1.0000000;"
         offset="0.0000000"
         id="stop1589" />
      <stop
         style="stop-color:#aa2934;stop-opacity:1.0000000;"
         offset="1.0000000"
         id="stop1590" />
    </linearGradient>
    <linearGradient
       inkscape:collect="always"
       xlink:href="#linearGradient2999"
       id="linearGradient3015" />
    <radialGradient
       inkscape:collect="always"
       xlink:href="#linearGradient3020"
       id="radialGradient3019"
       cx="0.50000000"
       cy="0.50000000"
       r="0.74284512"
       fx="0.50000000"
       fy="0.50000000" />
    <linearGradient
       inkscape:collect="always"
       xlink:href="#linearGradient3792"
       id="linearGradient3791"
       x1="0.83333331"
       y1="0.25781250"
       x2="0.14035088"
       y2="0.78125000" />
  </defs>
  <sodipodi:namedview
     id="base"
     pagecolor="#ffffff"
     bordercolor="#666666"
     borderopacity="1.0"
     inkscape:pageopacity="0.0"
     inkscape:pageshadow="2"
     inkscape:zoom="3.8389825"
     inkscape:cx="286.53426"
     inkscape:cy="573.32569"
     inkscape:window-width="1274"
     inkscape:window-height="975"
     inkscape:window-x="0"
     inkscape:window-y="0"
     showguides="false"
     inkscape:guide-bbox="false">
    <sodipodi:guide
       orientation="horizontal"
       position="568.69063"
       id="guide2964" />
    <sodipodi:guide
       orientation="horizontal"
       position="510.20435"
       id="guide2965" />
    <sodipodi:guide
       orientation="horizontal"
       position="558.38816"
       id="guide2966" />
    <sodipodi:guide
       orientation="horizontal"
       position="575.23136"
       id="guide2967" />
    <sodipodi:guide
       orientation="vertical"
       position="398.28262"
       id="guide2971" />
    <sodipodi:guide
       orientation="vertical"
       position="408.79441"
       id="guide2983" />
    <sodipodi:guide
       orientation="horizontal"
       position="517.77214"
       id="guide2984" />
    <sodipodi:guide
       orientation="horizontal"
       position="589.55028"
       id="guide2986" />
    <sodipodi:guide
       orientation="horizontal"
       position="495.55937"
       id="guide4758" />
    <sodipodi:guide
       orientation="horizontal"
       position="608.81828"
       id="guide1029" />
    <sodipodi:guide
       orientation="horizontal"
       position="599.40755"
       id="guide1030" />
  </sodipodi:namedview>
  <metadata
     id="metadata911">
    <rdf:RDF
       id="RDF912">
      <cc:Work
         rdf:about=""
         id="Work913">
        <dc:format
           id="format914">image/svg+xml</dc:format>
        <dc:type
           id="type916"
           rdf:resource="http://purl.org/dc/dcmitype/StillImage" />
      </cc:Work>
    </rdf:RDF>
  </metadata>
  <rect
     style="fill:#ffffff;fill-opacity:1.0000000;fill-rule:evenodd;stroke:#c0c0c0;stroke-width:15.556961;stroke-linecap:butt;stroke-linejoin:bevel;stroke-miterlimit:4.0000000;stroke-opacity:1.0000000;"
     id="rect1031"
     width="299.85788"
     height="233.18291"
     x="202.24634"
     y="218.42006"
     rx="20.000000"
     ry="20.000000" />
  <path
     sodipodi:type="arc"
     style="fill:#930f0f;fill-opacity:1.0000000;fill-rule:evenodd;stroke:#000000;stroke-width:1.0000000pt;stroke-linecap:butt;stroke-linejoin:miter;stroke-opacity:1.0000000;"
     id="path3043"
     sodipodi:cx="249.06250"
     sodipodi:cy="543.92468"
     sodipodi:rx="49.062500"
     sodipodi:ry="49.062500"
     d="M 298.12500 543.92468 A 49.062500 49.062500 0 1 0 200.00000,543.92468 A 49.062500 49.062500 0 1 0 298.12500 543.92468 z"
     transform="matrix(1.985212,0.000000,0.000000,1.992477,-172.9010,-749.0919)" />
  <path
     style="fill:url(#linearGradient3015);fill-opacity:0.45210728;fill-rule:evenodd;stroke:none;stroke-width:1.0000000pt;stroke-linecap:butt;stroke-linejoin:miter;stroke-opacity:1.0000000;"
     d="M 245.29029,499.71875 C 223.82868,499.71875 206.41529,517.16339 206.41529,538.62500 C 206.41529,546.70475 208.87899,554.18634 213.10279,560.40625 C 222.41125,557.89544 232.99705,552.68535 246.60279,541.03125 C 260.73085,528.92976 271.26342,524.11447 280.38404,522.15625 C 274.17235,508.94099 260.85086,499.71876 245.29029,499.71875 z "
     id="path3044"
     transform="matrix(1.985212,0.000000,0.000000,1.992477,-172.9010,-749.0919)" />
  <path
     style="fill:url(#radialGradient3019);fill-opacity:0.75000000;fill-rule:evenodd;stroke:none;stroke-width:1.0000000pt;stroke-linecap:butt;stroke-linejoin:miter;stroke-opacity:1.0000000;"
     d="M 249.70083,498.60708 C 246.17214,498.60708 242.78330,499.10299 239.48208,499.85708 C 242.01166,499.38352 244.59700,499.04458 247.26333,499.04458 C 270.56072,499.04458 289.48208,517.96594 289.48208,541.26333 C 289.48207,564.56074 270.56072,583.45083 247.26333,583.45083 C 223.96593,583.45083 205.07583,564.56072 205.07583,541.26333 C 205.07583,535.43899 206.25168,529.87465 208.38833,524.82583 C 205.50432,530.83516 203.73208,537.46877 203.73208,544.57583 C 203.73208,569.94682 224.32984,590.54461 249.70083,590.54458 C 275.07182,590.54458 295.66959,569.94682 295.66958,544.57583 C 295.66958,519.20484 275.07182,498.60708 249.70083,498.60708 z M 208.38833,524.82583 C 209.28967,522.69599 210.44541,520.72901 211.66958,518.79458 C 210.38538,520.68323 209.38433,522.75049 208.38833,524.82583 z "
     id="path3045"
     transform="matrix(1.985212,0.000000,0.000000,1.992477,-172.9010,-749.0919)" />
  <path
     style="fill:none;fill-opacity:0.75000000;fill-rule:evenodd;stroke:#000000;stroke-width:1.0000000pt;stroke-linecap:butt;stroke-linejoin:miter;stroke-opacity:1.0000000;"
     d="M 322.02255,236.21478 L 301.62524,238.50947 L 284.28752,243.86377 L 267.71471,252.27766 L 253.18162,263.75115 L 240.43330,280.57893 L 233.54921,293.58221 L 226.92009,319.07885"
     id="path924" />
  <path
     style="fill:url(#linearGradient3791);fill-opacity:0.66666669;fill-rule:evenodd;stroke:none;stroke-width:1.0000000pt;stroke-linecap:butt;stroke-linejoin:miter;stroke-opacity:1.0000000;"
     d="M 322.84375,235.71875 L 310.50000,242.96875 L 300.71875,251.21875 L 290.96875,263.59375 L 281.84375,279.65625 L 275.12500,296.81250 L 305.50000,299.84375 L 303.56250,319.62500 L 301.59375,340.65625 L 342.62500,340.87500 L 343.06250,360.87500 L 342.62500,379.75000 L 378.43750,374.96875 L 375.18750,391.90625 L 399.28125,384.75000 L 392.12500,398.62500 L 401.00000,391.90625 L 404.75000,387.50000 C 414.47051,372.17749 420.18750,354.02948 420.18750,334.53125 C 420.18750,280.35639 376.66925,236.36550 322.84375,235.71875 z "
     id="path3047"
     sodipodi:nodetypes="cccccccccccccccccccc" />
  <path
     style="fill:#000000;fill-opacity:1.0000000;fill-rule:evenodd;stroke:#000000;stroke-width:12.500000;stroke-linecap:round;stroke-linejoin:round;stroke-miterlimit:4.0000000;stroke-opacity:1.0000000;stroke-dasharray:none;"
     d="M 331.82917,261.02955 L 330.73542,261.65455 L 374.73542,337.43580 L 374.70417,337.46705 L 374.76667,337.49830 L 375.11042,338.09205 L 375.45417,337.90455 L 375.79792,338.09205 L 376.14167,337.46705 L 376.17292,337.46705 L 420.14167,261.65455 L 419.04792,261.02955 L 375.45417,336.18580 L 331.82917,261.02955 z "
     id="path1596" />
  <path
     style="fill:none;fill-opacity:0.75000000;fill-rule:evenodd;stroke:#000000;stroke-width:1.0000000pt;stroke-linecap:round;stroke-linejoin:miter;stroke-opacity:1.0000000;"
     d="M 402.33696,390.46944 L 391.11844,403.21776 L 380.40985,411.88662"
     id="path942" />
  <g
     id="g3889"
     style="stroke:#000000;stroke-opacity:0.43678162;stroke-width:0.82500000;stroke-miterlimit:4.0000000;stroke-dasharray:none;">
    <path
       style="fill:none;fill-opacity:0.75000000;fill-rule:evenodd;stroke:#000000;stroke-width:0.82500000;stroke-linecap:butt;stroke-linejoin:miter;stroke-opacity:0.43678162;stroke-miterlimit:4.0000000;stroke-dasharray:none;"
       d="M 349.04898,372.11186 L 384.99925,367.01253 L 385.76414,348.65495 L 350.32382,353.24435 L 349.04898,372.11186 z "
       id="path947" />
    <path
       style="fill:none;fill-opacity:0.75000000;fill-rule:evenodd;stroke:#000000;stroke-width:0.82500000;stroke-linecap:butt;stroke-linejoin:miter;stroke-opacity:0.43678162;stroke-miterlimit:4.0000000;stroke-dasharray:none;"
       d="M 383.72441,383.84031 L 403.10186,377.72112 L 407.43629,363.44300 L 386.01911,369.05227 L 383.72441,383.84031 z "
       id="path948"
       sodipodi:nodetypes="ccccc" />
    <path
       style="fill:none;fill-opacity:0.75000000;fill-rule:evenodd;stroke:#000000;stroke-width:0.82500000;stroke-linecap:butt;stroke-linejoin:miter;stroke-opacity:0.43678162;stroke-miterlimit:4.0000000;stroke-dasharray:none;"
       d="M 309.27423,333.61194 L 347.77415,333.10200 L 347.00925,314.23449 L 311.31396,314.48946 L 309.27423,333.61194 z "
       id="path949" />
    <path
       style="fill:none;fill-opacity:0.75000000;fill-rule:evenodd;stroke:#000000;stroke-width:0.82500000;stroke-linecap:butt;stroke-linejoin:miter;stroke-opacity:0.43678162;stroke-miterlimit:4.0000000;stroke-dasharray:none;"
       d="M 283.26766,291.79745 L 311.05899,294.09215 L 313.60866,280.57893 L 288.87692,278.53920 L 283.26766,291.79745 z "
       id="path957" />
    <path
       style="fill:none;fill-opacity:0.75000000;fill-rule:evenodd;stroke:#000000;stroke-width:0.82500000;stroke-linecap:butt;stroke-linejoin:miter;stroke-opacity:0.43678162;stroke-miterlimit:4.0000000;stroke-dasharray:none;"
       d="M 294.74115,270.12531 L 315.90336,271.91007 L 318.96295,262.98625 L 300.86034,261.71141 L 294.74115,270.12531 z "
       id="path958" />
    <path
       style="fill:none;fill-opacity:0.75000000;fill-rule:evenodd;stroke:#000000;stroke-width:0.82500000;stroke-linecap:butt;stroke-linejoin:miter;stroke-opacity:0.43678162;stroke-miterlimit:4.0000000;stroke-dasharray:none;"
       d="M 399.53233,388.93964 L 403.86676,384.86018 L 406.92635,375.42642 L 402.08199,379.50589 L 399.53233,388.93964 z "
       id="path959" />
    <path
       style="fill:none;fill-opacity:1.0000000;fill-rule:evenodd;stroke:#000000;stroke-width:0.82500000;stroke-linecap:butt;stroke-linejoin:miter;stroke-opacity:0.43678162;stroke-miterlimit:4.0000000;stroke-dasharray:none;"
       d="M 391.78135,301.23120 L 386.93699,288.22792 L 403.76477,285.16832 L 411.41376,296.89677 L 391.78135,301.23120 z "
       id="path961" />
    <path
       style="fill:none;fill-opacity:0.52490419;fill-rule:evenodd;stroke:#000000;stroke-width:0.82500000;stroke-linecap:butt;stroke-linejoin:miter;stroke-opacity:0.43678162;stroke-miterlimit:4.0000000;stroke-dasharray:none;"
       d="M 358.22778,338.91656 L 356.69798,319.02919 L 386.78401,316.98946 L 389.58864,334.07221 L 358.22778,338.91656 z "
       id="path960"
       sodipodi:nodetypes="ccccc" />
    <path
       style="fill:none;fill-opacity:1.0000000;fill-rule:evenodd;stroke:#000000;stroke-width:0.82500000;stroke-linecap:butt;stroke-linejoin:miter;stroke-opacity:0.43678162;stroke-miterlimit:4.0000000;stroke-dasharray:none;"
       d="M 317.17819,305.82060 L 319.21792,291.03255 L 345.98939,291.03255 L 347.00926,305.31067 L 317.17819,305.82060 z "
       id="path962" />
    <g
       id="g3835"
       style="stroke:#000000;stroke-opacity:0.43678162;stroke-width:0.82500000;stroke-miterlimit:4.0000000;stroke-dasharray:none;">
      <path
         style="fill:none;fill-opacity:0.75000000;fill-rule:evenodd;stroke:#000000;stroke-width:0.82500000;stroke-linecap:butt;stroke-linejoin:miter;stroke-opacity:0.43678162;stroke-miterlimit:4.0000000;stroke-dasharray:none;"
         d="M 302.39014,238.50947 L 303.15503,240.29424 L 305.44973,241.56907 L 310.54906,242.84390 L 310.54906,242.84390"
         id="path956" />
      <g
         id="g3814"
         style="stroke:#000000;stroke-opacity:0.43678162;stroke-width:0.82500000;stroke-miterlimit:4.0000000;stroke-dasharray:none;">
        <path
           style="fill:none;fill-opacity:0.75000000;fill-rule:evenodd;stroke:#000000;stroke-width:0.82500000;stroke-linecap:butt;stroke-linejoin:miter;stroke-opacity:0.43678162;stroke-miterlimit:4.0000000;stroke-dasharray:none;"
           d="M 322.02255,236.21478 L 311.05899,242.84390 L 300.86034,251.51276 L 291.17161,264.00611 L 282.24779,279.30410 L 275.10873,297.40671 L 269.24451,317.03912 L 265.92994,336.92650 L 265.16504,357.06884 L 266.43988,375.42642 L 270.00940,392.50917 L 276.12860,406.78729 L 283.01269,417.75084 L 291.42658,425.65480 L 301.37027,430.24420 L 316.15832,432.02896 L 316.15832,432.02896 L 316.15832,432.02896"
           id="path927"
           sodipodi:nodetypes="cccccccccccccccccc" />
        <g
           id="g3795"
           style="stroke:#000000;stroke-opacity:0.43678162;fill:none;stroke-width:0.82500000;stroke-miterlimit:4.0000000;stroke-dasharray:none;">
          <path
             style="fill:none;fill-opacity:0.75000000;fill-rule:evenodd;stroke:#000000;stroke-width:0.82500000;stroke-linecap:butt;stroke-linejoin:miter;stroke-opacity:0.43678162;stroke-miterlimit:4.0000000;stroke-dasharray:none;"
             d="M 321.76758,236.46974 L 303.41000,240.03927 L 285.30739,246.41343 L 267.96967,256.10215 L 253.69156,268.59551 L 241.19820,284.65839 L 232.52935,301.74114 L 226.66512,319.07885 L 225.13532,339.47616 L 227.17505,358.34368 L 233.54921,375.93636 L 242.98297,391.23434 L 256.49619,405.51246 L 265.16504,412.14158 L 265.16504,412.14158 L 265.42001,412.65152"
             id="path925" />
          <path
             style="fill:none;fill-opacity:0.75000000;fill-rule:evenodd;stroke:#000000;stroke-width:0.82500000;stroke-linecap:butt;stroke-linejoin:miter;stroke-opacity:0.43678162;stroke-miterlimit:4.0000000;stroke-dasharray:none;"
             d="M 321.51261,236.72471 L 305.44973,241.56907 L 290.15175,249.21806 L 275.87363,260.43658 L 263.12531,274.96967 L 252.67169,291.03255 L 244.00283,310.15503 L 239.66840,329.27751 L 238.64854,348.90992 L 240.17834,367.26750 L 245.53263,385.37011 L 253.94652,400.41313 L 264.91008,412.90648 L 278.16833,421.57534 L 292.70141,426.92963 L 305.19477,430.49916 L 313.35369,431.77400"
             id="path926" />
          <path
             style="fill:none;fill-opacity:0.75000000;fill-rule:evenodd;stroke:#000000;stroke-width:0.82500000;stroke-linecap:butt;stroke-linejoin:miter;stroke-opacity:0.43678162;stroke-miterlimit:4.0000000;stroke-dasharray:none;"
             d="M 303.91993,320.09872 L 269.49947,316.78415 L 244.00283,310.40999 L 232.78431,302.25107 L 233.29425,294.09215"
             id="path934"
             sodipodi:nodetypes="ccccc" />
          <path
             style="fill:none;fill-opacity:0.75000000;fill-rule:evenodd;stroke:#000000;stroke-width:0.82500000;stroke-linecap:butt;stroke-linejoin:miter;stroke-opacity:0.43678162;stroke-miterlimit:4.0000000;stroke-dasharray:none;"
             d="M 343.18476,360.89334 L 303.41000,361.40327 L 264.91008,357.06884 L 238.64854,349.67482 L 225.64525,339.73113"
             id="path937" />
          <path
             style="fill:none;fill-opacity:0.75000000;fill-rule:evenodd;stroke:#000000;stroke-width:0.82500000;stroke-linecap:round;stroke-linejoin:miter;stroke-opacity:0.43678162;stroke-miterlimit:4.0000000;stroke-dasharray:none;"
             d="M 401.82703,390.97937 L 392.39327,398.88333 L 369.44630,406.53232 L 339.61523,410.86675 L 306.21463,410.86675 L 276.38356,407.29722 L 254.20149,400.66810 L 243.49290,391.99924"
             id="path943"
             sodipodi:nodetypes="cccccccc" />
          <path
             style="fill:none;fill-opacity:0.75000000;fill-rule:evenodd;stroke:#000000;stroke-width:0.82500000;stroke-linecap:butt;stroke-linejoin:miter;stroke-opacity:0.43678162;stroke-miterlimit:4.0000000;stroke-dasharray:none;"
             d="M 380.40985,411.63165 L 362.30724,418.26078 L 336.55563,421.32037 L 308.76430,421.32037 L 283.26766,418.00581 L 265.16504,412.65152"
             id="path944" />
          <path
             style="fill:none;fill-opacity:0.75000000;fill-rule:evenodd;stroke:#000000;stroke-width:0.82500000;stroke-linecap:butt;stroke-linejoin:miter;stroke-opacity:0.43678162;stroke-miterlimit:4.0000000;stroke-dasharray:none;"
             d="M 367.91650,421.06541 L 353.63838,425.65480 L 334.00597,428.20447 L 311.82389,428.20447 L 291.17161,425.65480"
             id="path945" />
          <path
             style="fill:none;fill-opacity:0.75000000;fill-rule:evenodd;stroke:#000000;stroke-width:0.82500000;stroke-linecap:butt;stroke-linejoin:miter;stroke-opacity:0.43678162;stroke-miterlimit:4.0000000;stroke-dasharray:none;"
             d="M 252.92666,263.75115 L 252.41672,269.36041 L 262.36041,275.73457 L 281.73786,279.81403"
             id="path953" />
          <path
             style="fill:none;fill-opacity:0.75000000;fill-rule:evenodd;stroke:#000000;stroke-width:0.82500000;stroke-linecap:butt;stroke-linejoin:miter;stroke-opacity:0.43678162;stroke-miterlimit:4.0000000;stroke-dasharray:none;"
             d="M 267.71471,252.27766 L 267.20477,256.35712 L 274.59880,260.69155 L 291.17161,264.00611"
             id="path954" />
          <path
             style="fill:none;fill-opacity:0.75000000;fill-rule:evenodd;stroke:#000000;stroke-width:0.82500000;stroke-linecap:butt;stroke-linejoin:miter;stroke-opacity:0.43678162;stroke-miterlimit:4.0000000;stroke-dasharray:none;"
             d="M 284.28752,243.86377 L 284.79746,247.17833 L 289.89678,249.21806 L 300.86034,251.25779"
             id="path955" />
          <path
             style="fill:none;fill-opacity:0.75000000;fill-rule:evenodd;stroke:#000000;stroke-width:0.82500000;stroke-linecap:butt;stroke-linejoin:miter;stroke-opacity:0.43678162;stroke-miterlimit:4.0000000;stroke-dasharray:none;"
             d="M 305.70470,299.95637 L 275.36370,297.15174 L 252.16176,292.05241 L 241.70814,285.42329 L 240.17834,281.34383 L 240.17834,281.34383 L 240.43330,281.59879"
             id="path933" />
          <path
             style="fill:none;fill-opacity:0.75000000;fill-rule:evenodd;stroke:#000000;stroke-width:0.82500000;stroke-linecap:butt;stroke-linejoin:miter;stroke-opacity:0.43678162;stroke-miterlimit:4.0000000;stroke-dasharray:none;"
             d="M 305.70470,299.95637 L 303.66497,320.09872 L 301.62524,341.00596 L 301.37027,361.14831 L 302.13517,379.76085 L 304.93980,396.58863 L 307.48946,410.61178 L 310.54906,420.81044 L 313.60866,427.69453 L 316.41329,431.51903 L 318.45302,432.79386 L 324.82718,433.30379"
             id="path952" />
          <path
             style="fill:none;fill-opacity:0.75000000;fill-rule:evenodd;stroke:#000000;stroke-width:0.82500000;stroke-linecap:round;stroke-linejoin:miter;stroke-opacity:0.43678162;stroke-miterlimit:4.0000000;stroke-dasharray:none;"
             d="M 342.86870,341.05111 L 302.39014,341.00596 L 266.18491,336.92650 L 239.92337,329.78744 L 226.66512,319.07885"
             id="path950"
             sodipodi:nodetypes="ccccc" />
          <path
             style="fill:none;fill-opacity:0.75000000;fill-rule:evenodd;stroke:#000000;stroke-width:0.82500000;stroke-linecap:round;stroke-linejoin:miter;stroke-opacity:0.43678162;stroke-miterlimit:4.0000000;stroke-dasharray:none;"
             d="M 342.88464,341.11220 L 343.18476,360.89334 L 342.92979,380.01582 L 341.65496,397.09857 L 339.61523,410.61178 L 336.55563,421.32037 L 334.00597,428.20447 L 330.69140,431.77400 L 317.17819,432.02896"
             id="path936"
             sodipodi:nodetypes="ccccccccc" />
          <path
             style="fill:none;fill-opacity:0.75000000;fill-rule:evenodd;stroke:#000000;stroke-width:0.82500000;stroke-linecap:round;stroke-linejoin:miter;stroke-opacity:0.43678162;stroke-miterlimit:4.0000000;stroke-dasharray:none;"
             d="M 378.37012,375.17146 L 343.18476,380.27078 L 302.13517,380.27078 L 266.69484,375.68139 L 240.17834,368.03240 L 227.17505,358.08871"
             id="path939"
             sodipodi:nodetypes="cccccc" />
          <path
             style="fill:none;fill-opacity:0.75000000;fill-rule:evenodd;stroke:#000000;stroke-width:0.82500000;stroke-linecap:round;stroke-linejoin:miter;stroke-opacity:0.43678162;stroke-miterlimit:4.0000000;stroke-dasharray:none;"
             d="M 378.37012,375.23255 L 375.31052,391.99924 L 369.44630,406.02239 L 362.05227,418.26078 L 352.36355,426.41970 L 344.45959,429.73426 L 330.94637,432.02896"
             id="path938"
             sodipodi:nodetypes="ccccccc" />
          <path
             style="fill:none;fill-opacity:0.75000000;fill-rule:evenodd;stroke:#000000;stroke-width:0.82500000;stroke-linecap:round;stroke-linejoin:miter;stroke-opacity:0.43678162;stroke-miterlimit:4.0000000;stroke-dasharray:none;"
             d="M 399.78730,384.60521 L 375.05556,391.99924 L 341.90993,396.58863 L 305.05487,397.32870 L 269.75444,392.76414 L 245.53263,385.37011 L 233.54921,375.42642"
             id="path941"
             sodipodi:nodetypes="ccccccc" />
          <path
             style="fill:none;fill-opacity:0.75000000;fill-rule:evenodd;stroke:#000000;stroke-width:0.82500000;stroke-linecap:round;stroke-linejoin:miter;stroke-opacity:0.43678162;stroke-miterlimit:4.0000000;stroke-dasharray:none;"
             d="M 399.78730,384.86018 L 391.88334,399.13830 L 380.15488,411.88662 L 368.42643,420.81044 L 356.18804,425.39984 L 345.47946,429.47930"
             id="path940" />
        </g>
      </g>
    </g>
  </g>
  <path
     style="fill:#930f0f;fill-opacity:0.86274511;fill-rule:evenodd;stroke:none;stroke-width:1.0000000pt;stroke-linecap:butt;stroke-linejoin:miter;stroke-opacity:1.0000000;"
     d="M 300.87500 261.71875 L 294.75000 270.12500 L 315.90625 271.90625 L 318.96875 263.00000 L 300.87500 261.71875 z M 288.87500 278.53125 L 283.28125 291.81250 L 311.06250 294.09375 L 313.59375 280.59375 L 288.87500 278.53125 z M 404.00000 284.65625 L 386.93750 288.21875 L 391.78125 301.21875 L 411.43750 297.06250 C 411.15486 296.38319 410.82863 295.73396 410.53125 295.06250 L 404.00000 284.65625 z M 319.21875 291.03125 L 317.18750 305.81250 L 347.00000 305.31250 L 346.00000 291.03125 L 319.21875 291.03125 z M 347.00000 314.25000 L 311.31250 314.50000 L 309.28125 333.62500 L 347.78125 333.09375 L 347.00000 314.25000 z M 386.78125 317.00000 L 356.68750 319.03125 L 358.21875 338.90625 L 389.59375 334.06250 L 386.78125 317.00000 z M 385.75000 348.65625 L 350.31250 353.25000 L 349.06250 372.12500 L 385.00000 367.00000 L 385.75000 348.65625 z M 407.43750 363.43750 L 386.03125 369.06250 L 383.71875 383.84375 L 403.09375 377.71875 L 407.43750 363.43750 z M 406.93750 375.43750 L 402.09375 379.50000 L 399.53125 388.93750 L 403.87500 384.87500 L 406.93750 375.43750 z "
     id="path3922" />
  <path
     style="fill:url(#linearGradient3015);fill-opacity:0.45210728;fill-rule:evenodd;stroke:none;stroke-width:1.0000000pt;stroke-linecap:butt;stroke-linejoin:miter;stroke-opacity:1.0000000;"
     d="M 300.87500 261.71875 L 294.75000 270.12500 L 315.90625 271.90625 L 318.96875 263.00000 L 300.87500 261.71875 z M 288.87500 278.53125 L 283.28125 291.81250 L 311.06250 294.09375 L 313.59375 280.59375 L 288.87500 278.53125 z M 319.21875 291.03125 L 317.18750 305.81250 L 347.00000 305.31250 L 346.00000 291.03125 L 319.21875 291.03125 z M 335.18750 314.34375 L 311.31250 314.50000 L 309.28125 333.62500 L 310.96875 333.59375 C 312.85716 332.04869 314.70668 330.58228 316.65625 328.90625 C 323.20965 323.27235 329.35818 318.50505 335.18750 314.34375 z "
     id="path3953" />
  <path
     style="fill:url(#radialGradient3019);fill-opacity:0.75000000;fill-rule:evenodd;stroke:none;stroke-width:1.0000000pt;stroke-linecap:butt;stroke-linejoin:miter;stroke-opacity:1.0000000;"
     d="M 399.03125 285.68750 L 390.56250 287.46875 C 392.88962 291.51798 394.86180 295.78147 396.50000 300.21875 L 405.87500 298.25000 C 403.89578 293.86870 401.64530 289.66871 399.03125 285.68750 z M 407.43750 363.43750 L 392.68750 367.31250 C 390.28218 372.06450 387.44500 376.53964 384.21875 380.71875 L 383.71875 383.84375 L 403.09375 377.71875 L 407.43750 363.43750 z M 403.75000 378.12500 L 402.09375 379.50000 L 401.28125 382.50000 C 402.13243 381.05857 402.97674 379.61579 403.75000 378.12500 z "
     id="path4013" />
  <g
     id="g2286"
     transform="matrix(0.741500,0.000000,0.000000,0.856799,117.0767,61.99364)">
    <path
       style="fill:none;fill-opacity:0.75000000;fill-rule:evenodd;stroke:#000000;stroke-width:10.666590;stroke-linecap:round;stroke-linejoin:round;stroke-miterlimit:4.0000000;stroke-opacity:1.0000000;"
       d="M 430.64784,364.83244 C 482.71783,364.83244 485.35429,364.83244 485.35429,364.83244"
       id="path2847"
       sodipodi:nodetypes="cc" />
    <path
       style="fill:none;fill-opacity:0.75000000;fill-rule:evenodd;stroke:#000000;stroke-width:10.666590;stroke-linecap:round;stroke-linejoin:round;stroke-miterlimit:4.0000000;stroke-opacity:1.0000000;marker-start:none;marker-mid:none;"
       d="M 430.64784,394.11413 L 430.64784,426.93611 L 457.01239,426.93611 L 457.01239,393.47057 L 485.35427,393.47057 L 485.35427,427.57968"
       id="path2848"
       sodipodi:nodetypes="cccccc" />
    <path
       style="fill:none;fill-opacity:0.75000000;fill-rule:evenodd;stroke:#000000;stroke-width:10.666590;stroke-linecap:round;stroke-linejoin:round;stroke-miterlimit:4.0000000;stroke-opacity:1.0000000;marker-start:none;marker-mid:none;"
       d="M 485.29174,333.64020 L 430.52150,333.25833 L 451.32663,316.23324 L 430.60520,299.54605 L 485.35427,299.66941"
       id="path1028"
       sodipodi:nodetypes="ccccc" />
  </g>
</svg>
