<?xml version="1.0" encoding="UTF-8" standalone="no"?>
<!DOCTYPE svg PUBLIC "-//W3C//DTD SVG 20010904//EN"
"http://www.w3.org/TR/2001/REC-SVG-20010904/DTD/svg10.dtd">
<!-- Created with Inkscape (http://www.inkscape.org/) -->
<svg
   width="210mm"
   height="297mm"
   id="svg1"
   sodipodi:version="0.32"
   inkscape:version="0.39"
   sodipodi:docbase="/home/absinthe/o_dastier/v_sim-dev/pixmaps/illustration"
   sodipodi:docname="axesTransform.svg"
   xmlns="http://www.w3.org/2000/svg"
   xmlns:cc="http://web.resource.org/cc/"
   xmlns:inkscape="http://www.inkscape.org/namespaces/inkscape"
   xmlns:sodipodi="http://sodipodi.sourceforge.net/DTD/sodipodi-0.dtd"
   xmlns:rdf="http://www.w3.org/1999/02/22-rdf-syntax-ns#"
   xmlns:xml="http://www.w3.org/XML/1998/namespace"
   xmlns:dc="http://purl.org/dc/elements/1.1/"
   xmlns:xlink="http://www.w3.org/1999/xlink">
  <defs
     id="defs3">
    <marker
       style="overflow:visible;"
       id="Arrow1L"
       refX="0.0"
       refY="0.0"
       orient="auto"
       inkscape:stockid="Arrow1L">
      <path
         transform="scale(0.8)"
         style="fill-rule:evenodd;stroke:#000000;stroke-width:1.0pt;marker-start:none;"
         d="M 0.0,0.0 L 5.0,-5.0 L -12.5,0.0 L 5.0,5.0 L 0.0,0.0 z "
         id="path1786"
         sodipodi:nodetypes="ccccc" />
    </marker>
    <marker
       style="overflow:visible;"
       id="TriangleInM"
       refX="0.0"
       refY="0.0"
       orient="auto"
       inkscape:stockid="TriangleInM">
      <path
         transform="scale(-0.4)"
         style="fill-rule:evenodd;stroke:#000000;stroke-width:1.0pt;marker-start:none;"
         d="M 5.77,0.0 L -2.88,5.0 L -2.88,-5.0 L 5.77,0.0 z "
         id="path1738"
         sodipodi:nodetypes="cccc" />
    </marker>
    <marker
       style="overflow:visible;"
       id="TriangleOutL"
       refX="0.0"
       refY="0.0"
       orient="auto"
       inkscape:stockid="TriangleOutL">
      <path
         transform="scale(0.8)"
         style="fill-rule:evenodd;stroke:#000000;stroke-width:1.0pt;marker-start:none;"
         d="M 5.77,0.0 L -2.88,5.0 L -2.88,-5.0 L 5.77,0.0 z "
         id="path1734"
         sodipodi:nodetypes="cccc" />
    </marker>
    <marker
       style="overflow:visible;"
       id="TriangleInL"
       refX="0.0"
       refY="0.0"
       orient="auto"
       inkscape:stockid="TriangleInL">
      <path
         transform="scale(-0.8)"
         style="fill-rule:evenodd;stroke:#000000;stroke-width:1.0pt;marker-start:none;"
         d="M 5.77,0.0 L -2.88,5.0 L -2.88,-5.0 L 5.77,0.0 z "
         id="path1740"
         sodipodi:nodetypes="cccc" />
    </marker>
    <marker
       style="overflow:visible;"
       id="TriangleOutM"
       refX="0.0"
       refY="0.0"
       orient="auto"
       inkscape:stockid="TriangleOutM">
      <path
         transform="scale(0.4)"
         style="fill-rule:evenodd;stroke:#000000;stroke-width:1.0pt;marker-start:none;"
         d="M 5.77,0.0 L -2.88,5.0 L -2.88,-5.0 L 5.77,0.0 z "
         id="path1732"
         sodipodi:nodetypes="cccc" />
    </marker>
  </defs>
  <sodipodi:namedview
     id="base"
     pagecolor="#ffffff"
     bordercolor="#666666"
     borderopacity="1.0"
     inkscape:pageopacity="0.0"
     inkscape:pageshadow="2"
     inkscape:zoom="2.2201364"
     inkscape:cx="210.22052"
     inkscape:cy="427.96471"
     inkscape:current-layer="layer1"
     showguides="false"
     inkscape:guide-bbox="false"
     inkscape:guide-points="true"
     guidetolerance="5.0000000px"
     inkscape:window-width="1270"
     inkscape:window-height="951"
     inkscape:window-x="0"
     inkscape:window-y="0">
    <sodipodi:guide
       orientation="vertical"
       position="212.95507"
       id="guide1061" />
    <sodipodi:guide
       orientation="horizontal"
       position="385.08456"
       id="guide1062" />
    <sodipodi:guide
       orientation="vertical"
       position="305.64018"
       id="guide1801" />
    <sodipodi:guide
       orientation="horizontal"
       position="474.45949"
       id="guide1803" />
    <sodipodi:guide
       orientation="horizontal"
       position="305.64018"
       id="guide1804" />
  </sodipodi:namedview>
  <metadata
     id="metadata4">
    <rdf:RDF
       id="RDF5">
      <cc:Work
         rdf:about=""
         id="Work6">
        <dc:format
           id="format7">image/svg+xml</dc:format>
        <dc:type
           id="type9"
           rdf:resource="http://purl.org/dc/dcmitype/StillImage" />
      </cc:Work>
    </rdf:RDF>
  </metadata>
  <path
     style="fill:none;fill-opacity:0.75000000;fill-rule:evenodd;stroke:#000000;stroke-width:1.0000000pt;stroke-linecap:butt;stroke-linejoin:miter;stroke-opacity:1.0000000;marker-end:url(#TriangleOutL);"
     d="M 266.19384,571.00648 L 266.19384,357.22386"
     id="path1063" />
  <path
     style="fill:none;fill-opacity:0.75000000;fill-rule:evenodd;stroke:#000000;stroke-width:1.0000000pt;stroke-linecap:butt;stroke-linejoin:miter;stroke-opacity:1.0000000;marker-start:none;marker-end:url(#TriangleOutL);"
     d="M 266.19384,571.00648 L 479.97646,571.00648"
     id="path1065" />
  <path
     style="fill:none;fill-opacity:0.75000000;fill-rule:evenodd;stroke:#000000;stroke-width:1.0000000pt;stroke-linecap:butt;stroke-linejoin:miter;stroke-opacity:1.0000000;marker-start:url(#TriangleInL);marker-end:none;"
     d="M 139.30351,708.93075 L 266.19384,571.00648"
     id="path1066"
     sodipodi:nodetypes="cc" />
  <path
     style="fill:none;fill-opacity:0.75000000;fill-rule:evenodd;stroke:#000000;stroke-width:1.0000000pt;stroke-linecap:butt;stroke-linejoin:miter;stroke-opacity:1.0000000;marker-start:url(#TriangleInL);marker-end:none;"
     d="M 382.05022,459.28782 L 266.19384,571.00648"
     id="path1800"
     sodipodi:nodetypes="cc" />
  <path
     style="fill:none;fill-opacity:0.75000000;fill-rule:evenodd;stroke:#000000;stroke-width:1.2500000;stroke-linecap:butt;stroke-linejoin:miter;stroke-opacity:1.0000000;marker-start:url(#TriangleInM);marker-end:none;stroke-miterlimit:4.0000000;stroke-dasharray:3.7500000 1.2500000;stroke-dashoffset:0.0000000;"
     d="M 382.05022,670.31196 L 266.19384,571.00648"
     id="path1802"
     sodipodi:nodetypes="cc" />
  <path
     style="fill:none;fill-opacity:0.75000000;fill-rule:evenodd;stroke:#000000;stroke-width:1.2500000;stroke-linecap:butt;stroke-linejoin:miter;stroke-opacity:1.0000000;stroke-miterlimit:4.0000000;stroke-dasharray:3.7500000 3.7500000;stroke-dashoffset:0.0000000;"
     d="M 382.05022,459.28782 L 382.05022,670.31196"
     id="path1805" />
  <path
     style="fill:none;fill-opacity:0.75000000;fill-rule:evenodd;stroke:#000000;stroke-width:0.68750000;stroke-linecap:butt;stroke-linejoin:miter;stroke-opacity:1.0000000;marker-start:none;marker-end:url(#TriangleOutL);stroke-miterlimit:4.0000000;stroke-dasharray:none;"
     d="M 248.89998,589.78985 C 260.95163,600.09952 273.32324,598.98118 284.33730,589.26563"
     id="path1809"
     sodipodi:nodetypes="cs" />
  <text
     xml:space="preserve"
     style="font-size:20.000000;font-style:normal;font-variant:normal;font-weight:normal;font-stretch:normal;fill:#000000;fill-opacity:1.0000000;stroke:none;stroke-width:1.0000000pt;stroke-linecap:butt;stroke-linejoin:miter;stroke-opacity:1.0000000;font-family:Bitstream Vera Sans;text-anchor:start;writing-mode:lr;"
     x="259.48923"
     y="602.79053"
     id="text1812"
     sodipodi:linespacing="100%"
     transform="translate(6.001485,8.229096)"><tspan
       x="259.48923"
       y="602.79053"
       sodipodi:role="line"
       id="tspan1815">φ</tspan></text>
  <path
     style="fill:none;fill-opacity:0.75000000;fill-rule:evenodd;stroke:#000000;stroke-width:0.68750000;stroke-linecap:butt;stroke-linejoin:miter;stroke-miterlimit:4.0000000;stroke-opacity:1.0000000;marker-start:none;marker-end:url(#TriangleOutL);"
     d="M 266.19384,520.70596 C 280.55844,512.70925 291.88603,523.54200 295.03605,537.42087"
     id="path1817"
     sodipodi:nodetypes="cs" />
  <text
     xml:space="preserve"
     style="font-size:20.000000;font-style:normal;font-variant:normal;font-weight:normal;font-stretch:normal;fill:#000000;fill-opacity:1.0000000;stroke:none;stroke-width:1.0000000pt;stroke-linecap:butt;stroke-linejoin:miter;stroke-opacity:1.0000000;font-family:Bitstream Vera Sans;text-anchor:start;writing-mode:lr;"
     x="259.48923"
     y="602.79053"
     id="text1818"
     sodipodi:linespacing="100%"
     transform="translate(26.41463,-87.01933)"><tspan
       x="259.48923"
       y="602.79053"
       sodipodi:role="line"
       id="tspan1821">θ</tspan></text>
  <text
     xml:space="preserve"
     style="font-size:24.000000;font-style:normal;font-variant:normal;font-weight:normal;font-stretch:normal;fill:#000000;fill-opacity:1.0000000;stroke:none;stroke-width:1.0000000pt;stroke-linecap:butt;stroke-linejoin:miter;stroke-opacity:1.0000000;font-family:KerkisCalligraphic;text-anchor:start;writing-mode:lr;"
     x="116.75227"
     y="732.35126"
     id="text1823"
     sodipodi:linespacing="100%"><tspan
       x="116.75227"
       y="732.35126"
       sodipodi:role="line"
       id="tspan1826">x</tspan></text>
  <text
     xml:space="preserve"
     style="font-size:24.000000;font-style:normal;font-variant:normal;font-weight:normal;font-stretch:normal;fill:#000000;fill-opacity:1.0000000;stroke:none;stroke-width:1.0000000pt;stroke-linecap:butt;stroke-linejoin:miter;stroke-opacity:1.0000000;font-family:KerkisCalligraphic;text-anchor:start;writing-mode:lr;"
     x="497.63449"
     y="584.13147"
     id="text1828"
     sodipodi:linespacing="100%"><tspan
       x="497.63449"
       y="584.13147"
       sodipodi:role="line"
       id="tspan1834">y</tspan></text>
  <text
     xml:space="preserve"
     style="font-size:24.000000;font-style:normal;font-variant:normal;font-weight:normal;font-stretch:normal;fill:#000000;fill-opacity:1.0000000;stroke:none;stroke-width:1.0000000pt;stroke-linecap:butt;stroke-linejoin:miter;stroke-opacity:1.0000000;font-family:KerkisCalligraphic;text-anchor:start;writing-mode:lr;"
     x="265.16260"
     y="343.16003"
     id="text1831"
     sodipodi:linespacing="100%"><tspan
       x="265.16260"
       y="343.16003"
       sodipodi:role="line"
       id="tspan1836">z</tspan></text>
  <text
     xml:space="preserve"
     style="font-size:24.000000;font-style:normal;font-variant:normal;font-weight:normal;font-stretch:normal;fill:#000000;fill-opacity:1.0000000;stroke:none;stroke-width:1.0000000pt;stroke-linecap:butt;stroke-linejoin:miter;stroke-opacity:1.0000000;font-family:KerkisCalligraphic;text-anchor:start;writing-mode:lr;"
     x="359.99301"
     y="441.60150"
     id="text1829"
     sodipodi:linespacing="100%"><tspan
       x="359.99301"
       y="441.60150"
       sodipodi:role="line"
       id="tspan1830">M(x,y,z)</tspan></text>
</svg>
