<?xml version="1.0" encoding="UTF-8" standalone="no"?>
<!-- Created with Inkscape (http://www.inkscape.org/) -->

<svg
   xmlns:dc="http://purl.org/dc/elements/1.1/"
   xmlns:cc="http://creativecommons.org/ns#"
   xmlns:rdf="http://www.w3.org/1999/02/22-rdf-syntax-ns#"
   xmlns:svg="http://www.w3.org/2000/svg"
   xmlns="http://www.w3.org/2000/svg"
   xmlns:xlink="http://www.w3.org/1999/xlink"
   xmlns:sodipodi="http://sodipodi.sourceforge.net/DTD/sodipodi-0.dtd"
   xmlns:inkscape="http://www.inkscape.org/namespaces/inkscape"
   width="210mm"
   height="297mm"
   id="svg2594"
   sodipodi:version="0.32"
   inkscape:version="0.47 r22583"
   sodipodi:docname="icons.svg"
   inkscape:output_extension="org.inkscape.output.svg.inkscape"
   version="1.1">
  <defs
     id="defs2596">
    <inkscape:perspective
       sodipodi:type="inkscape:persp3d"
       inkscape:vp_x="0 : 526.18109 : 1"
       inkscape:vp_y="0 : 1000 : 0"
       inkscape:vp_z="744.09448 : 526.18109 : 1"
       inkscape:persp3d-origin="372.04724 : 350.78739 : 1"
       id="perspective2837" />
    <linearGradient
       id="linearGradient3098">
      <stop
         style="stop-color:black;stop-opacity:0.41176471;"
         offset="0"
         id="stop3100" />
      <stop
         style="stop-color:black;stop-opacity:0;"
         offset="1"
         id="stop3102" />
    </linearGradient>
    <linearGradient
       id="linearGradient2189">
      <stop
         style="stop-color:#fff1a6;stop-opacity:0.0000000;"
         offset="0.0000000"
         id="stop2191" />
      <stop
         style="stop-color:#fff0a7;stop-opacity:1.0000000;"
         offset="1.0000000"
         id="stop2193" />
    </linearGradient>
    <linearGradient
       id="linearGradient2118">
      <stop
         style="stop-color:#000000;stop-opacity:1;"
         offset="0"
         id="stop2120" />
      <stop
         style="stop-color:#bea063;stop-opacity:1.0000000;"
         offset="1.0000000"
         id="stop2122" />
    </linearGradient>
    <linearGradient
       id="linearGradient2104">
      <stop
         style="stop-color:#faeac7;stop-opacity:1.0000000;"
         offset="0.0000000"
         id="stop2106" />
      <stop
         style="stop-color:#fcfb43;stop-opacity:1.0000000;"
         offset="1.0000000"
         id="stop2108" />
    </linearGradient>
    <linearGradient
       id="linearGradient3342">
      <stop
         style="stop-color:#f3b875;stop-opacity:1;"
         offset="0"
         id="stop3344" />
      <stop
         style="stop-color:#b86910;stop-opacity:1.0000000;"
         offset="1.0000000"
         id="stop3346" />
    </linearGradient>
    <linearGradient
       inkscape:collect="always"
       xlink:href="#linearGradient3342"
       id="linearGradient3348"
       x1="351.35217"
       y1="527.69415"
       x2="336.70840"
       y2="541.68457"
       gradientUnits="userSpaceOnUse" />
    <linearGradient
       inkscape:collect="always"
       xlink:href="#linearGradient3342"
       id="linearGradient3354"
       gradientUnits="userSpaceOnUse"
       x1="406.90250"
       y1="533.66064"
       x2="397.87442"
       y2="540.03394" />
    <marker
       style="overflow:visible;"
       id="Arrow2Mend"
       refX="0.0"
       refY="0.0"
       orient="auto"
       inkscape:stockid="Arrow2Mend">
      <path
         transform="scale(0.6) rotate(180) translate(-5,0)"
         d="M 8.7185878,4.0337352 L -2.2072895,0.016013256 L 8.7185884,-4.0017078 C 6.9730900,-1.6296469 6.9831476,1.6157441 8.7185878,4.0337352 z "
         style="font-size:12.0;fill-rule:evenodd;stroke-width:0.62500000;stroke-linejoin:round;"
         id="path2185"
         sodipodi:nodetypes="cccc" />
    </marker>
    <marker
       style="overflow:visible;"
       id="Arrow2Send"
       refX="0.0"
       refY="0.0"
       orient="auto"
       inkscape:stockid="Arrow2Send">
      <path
         transform="scale(0.3) rotate(180) translate(-5,0)"
         d="M 8.7185878,4.0337352 L -2.2072895,0.016013256 L 8.7185884,-4.0017078 C 6.9730900,-1.6296469 6.9831476,1.6157441 8.7185878,4.0337352 z "
         style="font-size:12.0;fill-rule:evenodd;stroke-width:0.62500000;stroke-linejoin:round;"
         id="path2182"
         sodipodi:nodetypes="cccc" />
    </marker>
    <linearGradient
       inkscape:collect="always"
       xlink:href="#linearGradient2189"
       id="linearGradient2195"
       x1="408.33499"
       y1="256.78833"
       x2="435.50964"
       y2="233.72563"
       gradientUnits="userSpaceOnUse" />
    <linearGradient
       inkscape:collect="always"
       xlink:href="#linearGradient2118"
       id="linearGradient2219"
       gradientUnits="userSpaceOnUse"
       gradientTransform="matrix(-0.146214,-0.123047,0.129036,-0.139429,489.6528,340.8141)"
       x1="416.21510"
       y1="313.29246"
       x2="480.76099"
       y2="313.29246" />
    <radialGradient
       inkscape:collect="always"
       xlink:href="#linearGradient2104"
       id="radialGradient2221"
       gradientUnits="userSpaceOnUse"
       gradientTransform="matrix(-0.866193,-0.964431,0.948958,-0.852299,652.5802,820.9776)"
       cx="450.70261"
       cy="219.16672"
       fx="450.70261"
       fy="219.16672"
       r="66.177185" />
    <linearGradient
       inkscape:collect="always"
       xlink:href="#linearGradient2189"
       id="linearGradient2223"
       gradientUnits="userSpaceOnUse"
       x1="408.33499"
       y1="256.78833"
       x2="435.50964"
       y2="233.72563"
       gradientTransform="translate(87.94879,-2.008077)" />
    <linearGradient
       inkscape:collect="always"
       xlink:href="#linearGradient2118"
       id="linearGradient2244"
       gradientUnits="userSpaceOnUse"
       gradientTransform="matrix(-0.146214,-0.123047,0.129036,-0.139429,489.6528,340.8141)"
       x1="416.21510"
       y1="313.29246"
       x2="480.76099"
       y2="313.29246" />
    <radialGradient
       inkscape:collect="always"
       xlink:href="#linearGradient2104"
       id="radialGradient2246"
       gradientUnits="userSpaceOnUse"
       gradientTransform="matrix(-0.866193,-0.964431,0.948958,-0.852299,652.5802,820.9776)"
       cx="450.70261"
       cy="219.16672"
       fx="450.70261"
       fy="219.16672"
       r="66.177185" />
    <linearGradient
       inkscape:collect="always"
       xlink:href="#linearGradient2189"
       id="linearGradient2248"
       gradientUnits="userSpaceOnUse"
       gradientTransform="translate(87.94879,-2.008077)"
       x1="408.33499"
       y1="256.78833"
       x2="435.50964"
       y2="233.72563" />
    <linearGradient
       inkscape:collect="always"
       xlink:href="#linearGradient2118"
       id="linearGradient2262"
       gradientUnits="userSpaceOnUse"
       gradientTransform="matrix(-0.146214,-0.123047,0.129036,-0.139429,489.6528,340.8141)"
       x1="416.21510"
       y1="313.29246"
       x2="480.76099"
       y2="313.29246" />
    <radialGradient
       inkscape:collect="always"
       xlink:href="#linearGradient2104"
       id="radialGradient2264"
       gradientUnits="userSpaceOnUse"
       gradientTransform="matrix(-0.866193,-0.964431,0.948958,-0.852299,652.5802,820.9776)"
       cx="450.70261"
       cy="219.16672"
       fx="450.70261"
       fy="219.16672"
       r="66.177185" />
    <linearGradient
       inkscape:collect="always"
       xlink:href="#linearGradient2189"
       id="linearGradient2266"
       gradientUnits="userSpaceOnUse"
       gradientTransform="translate(87.94879,-2.008077)"
       x1="408.33499"
       y1="256.78833"
       x2="435.50964"
       y2="233.72563" />
    <linearGradient
       inkscape:collect="always"
       xlink:href="#linearGradient2118"
       id="linearGradient2280"
       gradientUnits="userSpaceOnUse"
       gradientTransform="matrix(-0.146214,-0.123047,0.129036,-0.139429,489.6528,340.8141)"
       x1="416.21510"
       y1="313.29246"
       x2="480.76099"
       y2="313.29246" />
    <radialGradient
       inkscape:collect="always"
       xlink:href="#linearGradient2104"
       id="radialGradient2282"
       gradientUnits="userSpaceOnUse"
       gradientTransform="matrix(-0.866193,-0.964431,0.948958,-0.852299,652.5802,820.9776)"
       cx="450.70261"
       cy="219.16672"
       fx="450.70261"
       fy="219.16672"
       r="66.177185" />
    <linearGradient
       inkscape:collect="always"
       xlink:href="#linearGradient2189"
       id="linearGradient2284"
       gradientUnits="userSpaceOnUse"
       gradientTransform="translate(87.94879,-2.008077)"
       x1="408.33499"
       y1="256.78833"
       x2="435.50964"
       y2="233.72563" />
    <linearGradient
       inkscape:collect="always"
       xlink:href="#linearGradient2118"
       id="linearGradient2293"
       gradientUnits="userSpaceOnUse"
       gradientTransform="matrix(-0.146214,-0.123047,0.129036,-0.139429,489.6528,340.8141)"
       x1="416.21510"
       y1="313.29246"
       x2="480.76099"
       y2="313.29246" />
    <radialGradient
       inkscape:collect="always"
       xlink:href="#linearGradient2104"
       id="radialGradient2295"
       gradientUnits="userSpaceOnUse"
       gradientTransform="matrix(-0.866193,-0.964431,0.948958,-0.852299,652.5802,820.9776)"
       cx="450.70261"
       cy="219.16672"
       fx="450.70261"
       fy="219.16672"
       r="66.177185" />
    <linearGradient
       inkscape:collect="always"
       xlink:href="#linearGradient2189"
       id="linearGradient2358"
       gradientUnits="userSpaceOnUse"
       x1="408.33499"
       y1="256.78833"
       x2="435.50964"
       y2="233.72563"
       gradientTransform="matrix(1.261519,0.000000,0.000000,1.261519,-127.6955,-58.44769)" />
    <linearGradient
       inkscape:collect="always"
       xlink:href="#linearGradient2118"
       id="linearGradient2364"
       gradientUnits="userSpaceOnUse"
       gradientTransform="matrix(-0.146214,-0.123047,0.129036,-0.139429,489.6528,340.8141)"
       x1="416.21510"
       y1="313.29246"
       x2="480.76099"
       y2="313.29246" />
    <radialGradient
       inkscape:collect="always"
       xlink:href="#linearGradient2104"
       id="radialGradient2366"
       gradientUnits="userSpaceOnUse"
       gradientTransform="matrix(-0.866193,-0.964431,0.948958,-0.852299,652.5802,820.9776)"
       cx="450.70261"
       cy="219.16672"
       fx="450.70261"
       fy="219.16672"
       r="66.177185" />
    <linearGradient
       inkscape:collect="always"
       xlink:href="#linearGradient2118"
       id="linearGradient2371"
       gradientUnits="userSpaceOnUse"
       gradientTransform="matrix(-0.146214,-0.123047,0.129036,-0.139429,489.6528,340.8141)"
       x1="416.21510"
       y1="313.29246"
       x2="480.76099"
       y2="313.29246" />
    <radialGradient
       inkscape:collect="always"
       xlink:href="#linearGradient2104"
       id="radialGradient2373"
       gradientUnits="userSpaceOnUse"
       gradientTransform="matrix(-0.866193,-0.964431,0.948958,-0.852299,652.5802,820.9776)"
       cx="450.70261"
       cy="219.16672"
       fx="450.70261"
       fy="219.16672"
       r="66.177185" />
    <linearGradient
       inkscape:collect="always"
       xlink:href="#linearGradient2118"
       id="linearGradient2377"
       gradientUnits="userSpaceOnUse"
       gradientTransform="matrix(-0.267889,-0.225444,0.236416,-0.255458,478.0921,403.3125)"
       x1="416.21510"
       y1="313.29246"
       x2="480.76099"
       y2="313.29246" />
    <radialGradient
       inkscape:collect="always"
       xlink:href="#linearGradient2104"
       id="radialGradient2379"
       gradientUnits="userSpaceOnUse"
       gradientTransform="matrix(-0.866193,-0.964431,0.948958,-0.852299,652.5802,820.9776)"
       cx="450.70261"
       cy="219.16672"
       fx="450.70261"
       fy="219.16672"
       r="66.177185" />
    <linearGradient
       inkscape:collect="always"
       xlink:href="#linearGradient2118"
       id="linearGradient2385"
       gradientUnits="userSpaceOnUse"
       gradientTransform="matrix(-0.267889,-0.225444,0.236416,-0.255458,478.0921,403.3125)"
       x1="416.21510"
       y1="313.29246"
       x2="480.76099"
       y2="313.29246" />
    <radialGradient
       inkscape:collect="always"
       xlink:href="#linearGradient2104"
       id="radialGradient2387"
       gradientUnits="userSpaceOnUse"
       gradientTransform="matrix(-0.866193,-0.964431,0.948958,-0.852299,652.5802,820.9776)"
       cx="450.70261"
       cy="219.16672"
       fx="450.70261"
       fy="219.16672"
       r="66.177185" />
    <linearGradient
       inkscape:collect="always"
       xlink:href="#linearGradient3342"
       id="linearGradient2191"
       gradientUnits="userSpaceOnUse"
       x1="351.35217"
       y1="527.69415"
       x2="336.70840"
       y2="541.68457"
       gradientTransform="translate(-87.04263,4.358931e-7)" />
  </defs>
  <sodipodi:namedview
     id="base"
     pagecolor="#ffffff"
     bordercolor="#666666"
     borderopacity="1.0"
     inkscape:pageopacity="0.0"
     inkscape:pageshadow="2"
     inkscape:zoom="0.6908268"
     inkscape:cx="372.04724"
     inkscape:cy="526.18109"
     inkscape:document-units="px"
     inkscape:current-layer="layer1"
     inkscape:window-width="1244"
     inkscape:window-height="976"
     inkscape:window-x="1280"
     inkscape:window-y="0"
     showguides="true"
     inkscape:guide-bbox="true"
     inkscape:guide-points="true"
     guidetolerance="4.0000000px"
     showgrid="false"
     inkscape:window-maximized="1">
    <sodipodi:guide
       orientation="horizontal"
       position="667.76534"
       id="guide5470" />
    <sodipodi:guide
       orientation="vertical"
       position="138.21328"
       id="guide5472" />
    <sodipodi:guide
       orientation="horizontal"
       position="587.80477"
       id="guide5490" />
    <sodipodi:guide
       orientation="vertical"
       position="218.17385"
       id="guide5492" />
    <sodipodi:guide
       orientation="vertical"
       position="160.39804"
       id="guide5518" />
    <sodipodi:guide
       orientation="horizontal"
       position="619.95790"
       id="guide5520" />
    <sodipodi:guide
       orientation="vertical"
       position="180.43406"
       id="guide7000" />
    <sodipodi:guide
       orientation="vertical"
       position="237.63167"
       id="guide1361" />
    <sodipodi:guide
       orientation="vertical"
       position="317.66891"
       id="guide1363" />
    <sodipodi:guide
       orientation="horizontal"
       position="420.75987"
       id="guide2190" />
    <sodipodi:guide
       orientation="vertical"
       position="607.34402"
       id="guide2192" />
    <sodipodi:guide
       orientation="vertical"
       position="467.66749"
       id="guide2297" />
    <sodipodi:guide
       orientation="vertical"
       position="533.83173"
       id="guide2299" />
    <sodipodi:guide
       orientation="horizontal"
       position="833.90258"
       id="guide2301" />
    <sodipodi:guide
       orientation="horizontal"
       position="769.34144"
       id="guide2303" />
  </sodipodi:namedview>
  <metadata
     id="metadata2599">
    <rdf:RDF>
      <cc:Work
         rdf:about="">
        <dc:format>image/svg+xml</dc:format>
        <dc:type
           rdf:resource="http://purl.org/dc/dcmitype/StillImage" />
        <dc:title></dc:title>
      </cc:Work>
    </rdf:RDF>
  </metadata>
  <g
     inkscape:label="Calque 1"
     inkscape:groupmode="layer"
     id="layer1">
    <path
       style="fill:white;stroke:#4b4b4b;stroke-width:2.1500001;stroke-miterlimit:4;stroke-dasharray:none;stroke-dashoffset:0;stroke-opacity:1;fill-opacity:0.79705882"
       d="M 256.81696,547.25731 L 252.55882,546.17181 L 252.57164,521.49293 L 257.39826,522.44918"
       id="rect3106"
       sodipodi:nodetypes="cccc"
       inkscape:export-filename="/home/sp2m_l_sim/caliste/developpement/v_sim-dev/pixmaps/stock-masking.png"
       inkscape:export-xdpi="48.871601"
       inkscape:export-ydpi="48.871601" />
    <path
       style="fill:none;fill-opacity:1.0;fill-rule:evenodd;stroke:#ea0000;stroke-width:2.15;stroke-linejoin:round;stroke-miterlimit:4;stroke-dasharray:4.3,2.15;stroke-dashoffset:0;stroke-opacity:1"
       d="M 256.19134,544.0308 C 257.69539,543.98896 258.41247,544.03153 259.93918,544.02366 C 259.93911,542.30487 259.96598,540.80348 259.98743,538.76853 C 261.62071,538.38832 264.21168,537.51534 265.86077,535.57452 C 267.01183,534.21983 266.88221,533.36181 266.88222,531.4301 C 266.88222,526.32829 261.75493,523.36291 256.0811,525.45889"
       id="path2193"
       sodipodi:nodetypes="cccssc"
       inkscape:export-filename="/home/sp2m_l_sim/caliste/developpement/v_sim-dev/pixmaps/stock-masking.png"
       inkscape:export-xdpi="48.871601"
       inkscape:export-ydpi="48.871601" />
    <use
       x="0"
       y="0"
       inkscape:tiled-clone-of="#rect1306"
       xlink:href="#rect1306"
       transform="translate(0.000000,36.69627)"
       id="use5496"
       inkscape:export-filename="/home/dcaliste/developpement/v_sim/v_sim-dev/pixmaps/stock-select-all_20.png"
       inkscape:export-xdpi="22.510000"
       inkscape:export-ydpi="22.510000" />
    <rect
       style="opacity:0.50000000;color:#000000;fill:#f6dfc7;fill-opacity:1.0000000;fill-rule:evenodd;stroke:#000000;stroke-width:1.4029404;stroke-linecap:butt;stroke-linejoin:round;marker:none;marker-start:none;marker-mid:none;marker-end:none;stroke-miterlimit:4.0000000;stroke-dasharray:none;stroke-dashoffset:0.0000000;stroke-opacity:1.0000000;visibility:visible;display:inline;overflow:visible"
       id="rect1306"
       width="27.930738"
       height="27.935518"
       x="138.91475"
       y="385.29831"
       inkscape:tile-w="20.339740"
       inkscape:tile-h="20.386819"
       inkscape:tile-cx="50.150159"
       inkscape:tile-cy="162.64531"
       inkscape:export-filename="/home/dcaliste/developpement/v_sim/v_sim-dev/pixmaps/stock-select-all_20.png"
       inkscape:export-xdpi="22.510000"
       inkscape:export-ydpi="22.510000" />
    <path
       style="fill:#000000;fill-opacity:1.0000000;fill-rule:evenodd;stroke:#000000;stroke-width:1.0000002px;stroke-linecap:butt;stroke-linejoin:round;stroke-opacity:1.0000000;opacity:0.50000000"
       d="M 141.88788,437.03769 C 143.25407,440.84345 145.56768,446.67905 148.64123,446.67905 C 152.76824,446.67905 156.72813,432.12858 163.61599,425.29278 C 157.86590,430.29797 151.96671,440.47365 148.64123,440.56117 C 146.50022,440.61752 143.54905,438.97069 141.88788,437.03769 z "
       id="path4442"
       sodipodi:nodetypes="cccsc"
       inkscape:export-filename="/home/dcaliste/developpement/v_sim/v_sim-dev/pixmaps/stock-select-all_20.png"
       inkscape:export-xdpi="22.510000"
       inkscape:export-ydpi="22.510000" />
    <rect
       style="fill:none;fill-rule:evenodd;stroke:none;stroke-width:0.052083399"
       id="rect1628"
       width="25.000004"
       height="24.999990"
       x="332.08295"
       y="-544.80121"
       transform="scale(1.000000,-1.000000)" />
    <path
       style="fill:url(#linearGradient3348);fill-rule:evenodd;stroke:#000000;stroke-width:1.4029400;stroke-linejoin:round;fill-opacity:1.0"
       d="M 346.91965,520.86370 C 341.81783,520.86370 337.66966,524.98063 337.66965,530.08245 C 337.66965,530.66623 337.74400,531.18485 337.84767,531.73870 L 332.91965,531.73870 L 332.91965,543.98870 L 349.07590,543.98870 L 349.07590,538.89495 C 353.10593,537.89948 356.16964,534.41857 356.16965,530.08245 C 356.16965,524.98063 352.02146,520.86369 346.91965,520.86370 z "
       id="path1590"
       sodipodi:nodetypes="ccccccccc"
       inkscape:export-filename="/home/dcaliste/developpement/v_sim/v_sim-dev/pixmaps/illustration/stock-union.png"
       inkscape:export-xdpi="54.760170"
       inkscape:export-ydpi="54.760170" />
    <rect
       style="fill:none;fill-rule:evenodd;stroke:none;stroke-width:0.052083399"
       id="rect1696"
       width="25.000004"
       height="24.999990"
       x="392.76324"
       y="-544.80121"
       transform="scale(1.000000,-1.000000)"
       inkscape:export-filename="/home/dcaliste/developpement/v_sim/v_sim-dev/pixmaps/stock-inter.png"
       inkscape:export-xdpi="54.760170"
       inkscape:export-ydpi="54.760170" />
    <rect
       style="fill:none;fill-rule:evenodd;stroke:#ec1406;stroke-width:1.8710700;stroke-linejoin:round;stroke-dasharray:1.8710700 1.8710700 ;stroke-dashoffset:0.0000000"
       id="rect1609"
       width="16.173271"
       height="12.265635"
       x="393.61411"
       y="531.72546"
       inkscape:export-filename="/home/dcaliste/developpement/v_sim/v_sim-dev/pixmaps/stock-inter.png"
       inkscape:export-xdpi="54.760170"
       inkscape:export-ydpi="54.760170" />
    <path
       sodipodi:type="arc"
       style="fill:none;fill-rule:evenodd;stroke:#ec1406;stroke-width:1.87094628;stroke-linejoin:round;stroke-dasharray:1.87094628,1.87094628;stroke-dashoffset:0;stroke-miterlimit:4"
       id="path1610"
       sodipodi:cx="461.60809"
       sodipodi:cy="254.26117"
       sodipodi:rx="8.1759214"
       sodipodi:ry="8.1759214"
       d="M 469.78401 254.26117 A 8.1759214 8.1759214 0 1 1  453.43217,254.26117 A 8.1759214 8.1759214 0 1 1  469.78401 254.26117 z"
       transform="matrix(1.130444,0.000000,0.000000,1.130444,-114.2051,242.6698)"
       inkscape:export-filename="/home/dcaliste/developpement/v_sim/v_sim-dev/pixmaps/stock-inter.png"
       inkscape:export-xdpi="54.760170"
       inkscape:export-ydpi="54.760170" />
    <path
       style="fill:url(#linearGradient3354);fill-rule:evenodd;stroke:#000000;stroke-width:1.4029400;stroke-linejoin:round;fill-opacity:1.0000000;opacity:1.0000000;color:#000000;stroke-linecap:butt;marker:none;marker-start:none;marker-mid:none;marker-end:none;stroke-miterlimit:4.0000000;stroke-dasharray:none;stroke-dashoffset:0;stroke-opacity:1.0000000;visibility:visible;display:inline;overflow:visible"
       d="M 398.57590,531.73870 C 399.37819,536.02507 402.93287,539.33245 407.45090,539.33245 C 408.22726,539.33245 408.91776,539.07551 409.63840,538.89495 L 409.63840,531.73870 L 398.57590,531.73870 z "
       id="path1608"
       inkscape:export-filename="/home/dcaliste/developpement/v_sim/v_sim-dev/pixmaps/stock-inter.png"
       inkscape:export-xdpi="54.760170"
       inkscape:export-ydpi="54.760170" />
    <rect
       y="400.71426"
       x="189.54164"
       height="27.935518"
       width="27.930738"
       id="use5500"
       style="color:black;fill:#e3a35a;fill-opacity:1;fill-rule:evenodd;stroke:black;stroke-width:1.40294039;stroke-linecap:butt;stroke-linejoin:round;marker:none;marker-start:none;marker-mid:none;marker-end:none;stroke-miterlimit:4;stroke-dasharray:none;stroke-dashoffset:0;stroke-opacity:1;visibility:visible;display:inline;overflow:visible" />
    <path
       style="fill:black;fill-opacity:1;fill-rule:evenodd;stroke:black;stroke-width:1.00000024px;stroke-linecap:butt;stroke-linejoin:round;stroke-opacity:1"
       d="M 192.61435,415.4502 C 193.98054,419.25596 196.29415,425.09156 199.3677,425.09156 C 203.49471,425.09156 207.4546,410.54109 214.34246,403.70529 C 208.59237,408.71048 202.69318,418.88616 199.3677,418.97368 C 197.22669,419.03003 194.27552,417.3832 192.61435,415.4502 z "
       id="path5502"
       sodipodi:nodetypes="cccsc" />
    <g
       inkscape:export-ydpi="22.510000"
       inkscape:export-xdpi="22.510000"
       inkscape:export-filename="/home/dcaliste/developpement/v_sim/v_sim-dev/pixmaps/stock-select-all_20.png"
       transform="translate(1.193046e-7,1e-5)"
       id="use5516">
      <rect
         y="435.92041"
         x="189.54164"
         height="27.935518"
         width="27.930738"
         id="rect3090"
         style="color:black;fill:#e3a35a;fill-opacity:1;fill-rule:evenodd;stroke:black;stroke-width:1.40294039;stroke-linecap:butt;stroke-linejoin:round;marker:none;marker-start:none;marker-mid:none;marker-end:none;stroke-miterlimit:4;stroke-dasharray:none;stroke-dashoffset:0;stroke-opacity:1;visibility:visible;display:inline;overflow:visible" />
      <path
         style="fill:black;fill-opacity:1;fill-rule:evenodd;stroke:black;stroke-width:1.00000024px;stroke-linecap:butt;stroke-linejoin:round;stroke-opacity:1"
         d="M 192.61435,450.65634 C 193.98054,454.4621 196.29415,460.2977 199.3677,460.2977 C 203.49471,460.2977 207.4546,445.74723 214.34246,438.91143 C 208.59237,443.91662 202.69318,454.0923 199.3677,454.17982 C 197.22669,454.23617 194.27552,452.58934 192.61435,450.65634 z "
         id="path3092"
         sodipodi:nodetypes="cccsc" />
    </g>
    <path
       style="fill:#8e8e8e;fill-opacity:1.0000000;fill-rule:evenodd;stroke:none;stroke-width:1.2500000;stroke-linecap:butt;stroke-linejoin:round;marker-end:none;stroke-miterlimit:4.0000000;stroke-dasharray:none;stroke-opacity:1.0000000;opacity:0.50000000"
       d="M 153.72789,410.09518 L 153.72789,436.50143 C 153.72817,439.26274 155.96658,441.50115 158.72789,441.50143 L 176.50914,441.50143 C 175.03605,443.49591 174.13414,445.25143 174.13414,445.25143 L 181.04039,448.22018 C 181.04039,448.22018 181.35281,447.46250 182.63414,445.81393 C 183.91547,444.16536 186.04484,441.88955 189.44664,439.62643 L 194.16539,436.47018 L 189.44664,433.37643 C 182.88541,429.05376 181.60289,424.31393 181.60289,424.31393 L 174.41539,426.43893 C 174.41539,426.43893 175.29508,428.66194 177.25914,431.50143 L 163.72789,431.50143 L 163.72789,410.09518 L 153.72789,410.09518 z "
       id="path7015"
       inkscape:export-filename="/home/dcaliste/developpement/v_sim/v_sim-dev/pixmaps/stock-select-all_20.png"
       inkscape:export-xdpi="22.000000"
       inkscape:export-ydpi="22.000000" />
    <path
       style="fill:#d14f0e;fill-opacity:1.0000000;fill-rule:evenodd;stroke:#000000;stroke-width:1.2500000;stroke-linecap:butt;stroke-linejoin:round;marker-end:none;stroke-miterlimit:4.0000000;stroke-opacity:1.0000000;stroke-dasharray:none"
       d="M 155.40625 406.00000 L 155.40625 432.40625 C 155.40653 435.16756 157.64494 437.40597 160.40625 437.40625 L 178.18750 437.40625 C 176.71441 439.40073 175.81250 441.15625 175.81250 441.15625 L 182.71875 444.12500 C 182.71875 444.12500 183.03117 443.36732 184.31250 441.71875 C 185.59383 440.07018 187.72320 437.79437 191.12500 435.53125 L 195.84375 432.37500 L 191.12500 429.28125 C 184.56377 424.95858 183.28125 420.21875 183.28125 420.21875 L 176.09375 422.34375 C 176.09375 422.34375 176.97344 424.56676 178.93750 427.40625 L 165.40625 427.40625 L 165.40625 406.00000 L 155.40625 406.00000 z "
       id="path1346"
       inkscape:export-filename="/home/dcaliste/developpement/v_sim/v_sim-dev/pixmaps/stock-select-all_20.png"
       inkscape:export-xdpi="22.000000"
       inkscape:export-ydpi="22.000000" />
    <use
       x="0.0000000"
       y="0.0000000"
       inkscape:tiled-clone-of="#rect1306"
       xlink:href="#rect1306"
       transform="translate(99.41839,50.62211)"
       id="use1342"
       inkscape:export-filename="/home/dcaliste/developpement/v_sim/v_sim-dev/pixmaps/stock-unselect-all_20.png"
       inkscape:export-xdpi="22.510000"
       inkscape:export-ydpi="22.510000"
       width="744.09448"
       height="1052.3622" />
    <rect
       style="opacity:0.49999997;color:#000000;fill:#f6dfc7;fill-opacity:1.0000000;fill-rule:evenodd;stroke:#000000;stroke-width:1.4029404;stroke-linecap:butt;stroke-linejoin:round;marker:none;marker-start:none;marker-mid:none;marker-end:none;stroke-miterlimit:4.0000000;stroke-dasharray:none;stroke-dashoffset:0.0000000;stroke-opacity:1.0000000;visibility:visible;display:inline;overflow:visible"
       id="rect1344"
       width="27.930738"
       height="27.935518"
       x="238.33310"
       y="399.22415"
       inkscape:tile-w="20.339740"
       inkscape:tile-h="20.386819"
       inkscape:tile-cx="50.150159"
       inkscape:tile-cy="162.64531"
       inkscape:export-filename="/home/dcaliste/developpement/v_sim/v_sim-dev/pixmaps/stock-unselect-all_20.png"
       inkscape:export-xdpi="22.510000"
       inkscape:export-ydpi="22.510000" />
    <path
       style="opacity:0.49999997;fill:#000000;fill-opacity:1.0000000;fill-rule:evenodd;stroke:#000000;stroke-width:1.0000002px;stroke-linecap:butt;stroke-linejoin:round;stroke-opacity:1.0000000"
       d="M 241.30621,450.96354 C 242.67240,454.76930 244.98601,460.60490 248.05956,460.60490 C 252.18657,460.60490 256.14646,446.05443 263.03432,439.21863 C 257.28423,444.22382 251.38504,454.39950 248.05956,454.48702 C 245.91855,454.54337 242.96738,452.89654 241.30621,450.96354 z "
       id="path1347"
       sodipodi:nodetypes="cccsc"
       inkscape:export-filename="/home/dcaliste/developpement/v_sim/v_sim-dev/pixmaps/stock-unselect-all_20.png"
       inkscape:export-xdpi="22.510000"
       inkscape:export-ydpi="22.510000" />
    <rect
       y="385.29831"
       x="289.03671"
       height="27.935518"
       width="27.930738"
       id="rect1351"
       style="opacity:1.0000000;color:#000000;fill:#e3a35a;fill-opacity:1.0000000;fill-rule:evenodd;stroke:#000000;stroke-width:1.4029404;stroke-linecap:butt;stroke-linejoin:round;marker:none;marker-start:none;marker-mid:none;marker-end:none;stroke-miterlimit:4.0000000;stroke-dasharray:none;stroke-dashoffset:0.0000000;stroke-opacity:1.0000000;visibility:visible;display:inline;overflow:visible"
       inkscape:export-filename="/home/dcaliste/developpement/v_sim/v_sim-dev/pixmaps/stock-unselect-all_20.png"
       inkscape:export-xdpi="22.000000"
       inkscape:export-ydpi="22.000000" />
    <rect
       style="opacity:1.0000000;color:#000000;fill:#e3a35a;fill-opacity:1.0000000;fill-rule:evenodd;stroke:#000000;stroke-width:1.4029404;stroke-linecap:butt;stroke-linejoin:round;marker:none;marker-start:none;marker-mid:none;marker-end:none;stroke-miterlimit:4.0000000;stroke-dasharray:none;stroke-dashoffset:0.0000000;stroke-opacity:1.0000000;visibility:visible;display:inline;overflow:visible"
       id="rect1372"
       width="27.930738"
       height="27.935518"
       x="289.03671"
       y="420.50446"
       inkscape:export-filename="/home/dcaliste/developpement/v_sim/v_sim-dev/pixmaps/stock-unselect-all_20.png"
       inkscape:export-xdpi="22.000000"
       inkscape:export-ydpi="22.000000" />
    <path
       style="opacity:0.49999997;fill:#000000;fill-opacity:1.0000000;fill-rule:evenodd;stroke:#000000;stroke-width:1.0000002px;stroke-linecap:butt;stroke-linejoin:round;stroke-opacity:1.0000000"
       d="M 241.20073,414.02680 C 242.56692,417.83256 244.88053,423.66816 247.95408,423.66816 C 252.08109,423.66816 256.04098,409.11769 262.92884,402.28189 C 257.17875,407.28708 251.27956,417.46276 247.95408,417.55028 C 245.81307,417.60663 242.86190,415.95980 241.20073,414.02680 z "
       id="path1365"
       sodipodi:nodetypes="cccsc"
       inkscape:export-filename="/home/dcaliste/developpement/v_sim/v_sim-dev/pixmaps/stock-unselect-all_20.png"
       inkscape:export-xdpi="22.510000"
       inkscape:export-ydpi="22.510000" />
    <path
       style="opacity:0.49999997;fill:#8e8e8e;fill-opacity:1.0000000;fill-rule:evenodd;stroke:none;stroke-width:1.2500000;stroke-linecap:butt;stroke-linejoin:round;marker-end:none;stroke-miterlimit:4.0000000;stroke-dasharray:none;stroke-opacity:1.0000000"
       d="M 252.54644,447.72545 L 252.54644,421.31920 C 252.54672,418.55789 254.78513,416.31948 257.54644,416.31920 L 275.32769,416.31920 C 273.85460,414.32472 272.95269,412.56920 272.95269,412.56920 L 279.85894,409.60045 C 279.85894,409.60045 280.17136,410.35813 281.45269,412.00670 C 282.73402,413.65527 284.86339,415.93108 288.26519,418.19420 L 292.98394,421.35045 L 288.26519,424.44420 C 281.70396,428.76687 280.42144,433.50670 280.42144,433.50670 L 273.23394,431.38170 C 273.23394,431.38170 274.11363,429.15869 276.07769,426.31920 L 262.54644,426.31920 L 262.54644,447.72545 L 252.54644,447.72545 z "
       id="path1357"
       inkscape:export-filename="/home/dcaliste/developpement/v_sim/v_sim-dev/pixmaps/stock-unselect-all_20.png"
       inkscape:export-xdpi="22.000000"
       inkscape:export-ydpi="22.000000" />
    <path
       style="fill:#d14f0e;fill-opacity:1.0000000;fill-rule:evenodd;stroke:#000000;stroke-width:1.2500000;stroke-linecap:butt;stroke-linejoin:round;marker-end:none;stroke-miterlimit:4.0000000;stroke-dasharray:none;stroke-opacity:1.0000000"
       d="M 254.90117,443.53694 L 254.90117,417.13069 C 254.90145,414.36938 257.13986,412.13097 259.90117,412.13069 L 277.68242,412.13069 C 276.20933,410.13621 275.30742,408.38069 275.30742,408.38069 L 282.21367,405.41194 C 282.21367,405.41194 282.52609,406.16962 283.80742,407.81819 C 285.08875,409.46676 287.21812,411.74257 290.61992,414.00569 L 295.33867,417.16194 L 290.61992,420.25569 C 284.05869,424.57836 282.77617,429.31819 282.77617,429.31819 L 275.58867,427.19319 C 275.58867,427.19319 276.46836,424.97018 278.43242,422.13069 L 264.90117,422.13069 L 264.90117,443.53694 L 254.90117,443.53694 z "
       id="path1359"
       inkscape:export-filename="/home/dcaliste/developpement/v_sim/v_sim-dev/pixmaps/stock-unselect-all_20.png"
       inkscape:export-xdpi="22.000000"
       inkscape:export-ydpi="22.000000" />
    <path
       style="color:#000000;fill:none;fill-opacity:1.0000000;fill-rule:nonzero;stroke:#000000;stroke-width:10.000001;stroke-linecap:butt;stroke-linejoin:miter;marker:none;marker-start:none;marker-mid:none;marker-end:none;stroke-miterlimit:4.0000000;stroke-dashoffset:0.0000000;stroke-opacity:1.0000000;visibility:visible;display:inline;overflow:visible"
       d="M 458.86559,632.42685 L 494.91494,632.42685 C 509.79813,632.42685 521.77990,646.23651 521.77990,663.39022 C 521.77990,680.54392 509.79813,694.35359 494.91494,694.35359 L 458.86559,694.35359 C 443.98241,694.35359 432.00063,680.54392 432.00063,663.39022 C 432.00063,646.23651 443.98241,632.42685 458.86559,632.42685 z "
       id="path2173" />
    <path
       style="fill:none;fill-opacity:0.75000000;fill-rule:evenodd;stroke:#ba371c;stroke-width:10.000000;stroke-linecap:round;stroke-linejoin:miter;stroke-miterlimit:4.0000000;stroke-dasharray:none;stroke-opacity:1.0000000"
       d="M 470.62632,614.87408 L 491.78702,632.61123 L 470.62632,649.88161"
       id="path2046"
       sodipodi:nodetypes="ccc" />
    <path
       style="color:#000000;fill:none;stroke:#000000;stroke-width:10.00000095;stroke-linecap:butt;stroke-linejoin:miter;stroke-miterlimit:4;stroke-opacity:1;stroke-dashoffset:0;marker:none;visibility:visible;display:inline;overflow:visible"
       d="m 607.60678,631.46413 -36.04935,0 c -14.88318,0 -26.86496,13.80967 -26.86496,30.96337 0,17.15371 11.98178,30.96337 26.86496,30.96337 l 30.37618,0"
       id="path2176"
       sodipodi:nodetypes="ccscc"
       inkscape:export-filename="/home/caliste/work/developpement/v_sim-dev/pixmaps/stock-go-once.png"
       inkscape:export-xdpi="16.196575"
       inkscape:export-ydpi="16.196575" />
    <path
       style="fill:none;stroke:#ba371c;stroke-width:10;stroke-linecap:round;stroke-linejoin:miter;stroke-miterlimit:4;stroke-opacity:1;stroke-dasharray:none"
       d="m 583.31816,710.94364 21.1607,-17.73715 -21.1607,-17.27038"
       id="path2178"
       sodipodi:nodetypes="ccc"
       inkscape:export-filename="/home/caliste/work/developpement/v_sim-dev/pixmaps/stock-go-once.png"
       inkscape:export-xdpi="16.196575"
       inkscape:export-ydpi="16.196575" />
    <path
       style="color:#000000;fill:none;fill-opacity:1.0000000;fill-rule:nonzero;stroke:#000000;stroke-width:10.000001;stroke-linecap:butt;stroke-linejoin:miter;marker:none;marker-start:none;marker-mid:none;marker-end:none;stroke-miterlimit:4.0000000;stroke-dashoffset:0.0000000;stroke-opacity:1.0000000;visibility:visible;display:inline;overflow:visible"
       d="M 347.54519,631.52972 L 383.59454,631.52972 C 398.47773,631.52972 410.45950,645.33938 410.45950,662.49309 C 410.45950,679.64679 398.47773,693.45646 383.59454,693.45646 L 347.54519,693.45646 C 332.66201,693.45646 320.68023,679.64679 320.68023,662.49309 C 320.68023,645.33938 332.66201,631.52972 347.54519,631.52972 z "
       id="path2180" />
    <path
       style="fill:none;fill-opacity:0.75000000;fill-rule:evenodd;stroke:#ba371c;stroke-width:10.000000;stroke-linecap:round;stroke-linejoin:miter;stroke-miterlimit:4.0000000;stroke-dasharray:none;stroke-opacity:1.0000000"
       d="M 339.13466,613.97695 L 360.29536,631.71410 L 339.13466,648.98448"
       id="path2183"
       sodipodi:nodetypes="ccc" />
    <path
       style="fill:none;fill-opacity:0.75000000;fill-rule:evenodd;stroke:#ba371c;stroke-width:10.000000;stroke-linecap:round;stroke-linejoin:miter;stroke-miterlimit:4.0000000;stroke-dasharray:none;stroke-opacity:1.0000000"
       d="M 391.51568,614.15063 L 370.35498,631.88778 L 391.51568,649.15816"
       id="path2186"
       sodipodi:nodetypes="ccc" />
    <path
       style="fill:none;fill-opacity:0.75000000;fill-rule:evenodd;stroke:#ba371c;stroke-width:10.000000;stroke-linecap:round;stroke-linejoin:miter;stroke-miterlimit:4.0000000;stroke-dasharray:none;stroke-opacity:1.0000000"
       d="M 484.80776,712.19334 L 463.64706,694.45619 L 484.80776,677.18581"
       id="path2188"
       sodipodi:nodetypes="ccc" />
    <path
       style="color:#000000;fill:none;stroke:#ba371c;stroke-width:10.00000191;stroke-linecap:round;stroke-linejoin:miter;stroke-miterlimit:4;stroke-opacity:1;stroke-dasharray:none;stroke-dashoffset:0;marker:none;visibility:visible;display:inline;overflow:visible"
       d="m 607.34402,643.11029 0,-22.18781"
       id="path2194"
       sodipodi:nodetypes="cc"
       inkscape:export-filename="/home/caliste/work/developpement/v_sim-dev/pixmaps/stock-go-once.png"
       inkscape:export-xdpi="16.196575"
       inkscape:export-ydpi="16.196575" />
    <rect
       y="232.51439"
       x="389.66727"
       height="27.935518"
       width="27.930738"
       id="rect2132"
       style="opacity:1.0000000;color:#000000;fill:#e3a35a;fill-opacity:0.79215688;fill-rule:evenodd;stroke:#000000;stroke-width:1.4030000;stroke-linecap:butt;stroke-linejoin:round;marker:none;marker-start:none;marker-mid:none;marker-end:none;stroke-miterlimit:4.0000000;stroke-dasharray:none;stroke-dashoffset:0.0000000;stroke-opacity:1.0000000;visibility:visible;display:inline;overflow:visible"
       inkscape:export-filename="/home/dcaliste/developpement/v_sim/v_sim-dev/pixmaps/stock-one-light_20.png"
       inkscape:export-xdpi="22.000000"
       inkscape:export-ydpi="22.000000" />
    <path
       style="opacity:1.0000000;color:#000000;fill:#e3a35a;fill-opacity:0.79179811;fill-rule:evenodd;stroke:#000000;stroke-width:1.4029404;stroke-linecap:butt;stroke-linejoin:round;marker:none;marker-start:none;marker-mid:none;marker-end:none;stroke-miterlimit:4.0000000;stroke-dasharray:none;stroke-dashoffset:0.0000000;stroke-opacity:1.0000000;visibility:visible;display:inline;overflow:visible"
       d="M 377.82813,248.33974 L 389.64812,232.53760 L 389.64812,260.15972 L 377.95455,276.08827 L 377.82813,248.33974 z "
       id="path2177"
       sodipodi:nodetypes="ccccc"
       inkscape:export-filename="/home/dcaliste/developpement/v_sim/v_sim-dev/pixmaps/stock-one-light_20.png"
       inkscape:export-xdpi="22.000000"
       inkscape:export-ydpi="22.000000" />
    <path
       style="opacity:1.0000000;color:#000000;fill:#e3a35a;fill-opacity:0.79179811;fill-rule:evenodd;stroke:#000000;stroke-width:1.4025000;stroke-linecap:butt;stroke-linejoin:round;marker:none;marker-start:none;marker-mid:none;marker-end:none;stroke-miterlimit:4.0000000;stroke-dasharray:none;stroke-dashoffset:0.0000000;stroke-opacity:1.0000000;visibility:visible;display:inline;overflow:visible"
       d="M 405.68728,248.36081 L 417.44406,232.62188 L 389.69553,232.55868 L 377.93875,248.29760 L 405.68728,248.36081 z "
       id="path2181"
       sodipodi:nodetypes="ccccc"
       inkscape:export-filename="/home/dcaliste/developpement/v_sim/v_sim-dev/pixmaps/stock-one-light_20.png"
       inkscape:export-xdpi="22.000000"
       inkscape:export-ydpi="22.000000" />
    <path
       style="opacity:1.0000000;color:#000000;fill:#e3a35a;fill-opacity:0.79179811;fill-rule:evenodd;stroke:#000000;stroke-width:1.4025000;stroke-linecap:butt;stroke-linejoin:round;marker:none;marker-start:none;marker-mid:none;marker-end:none;stroke-miterlimit:4.0000000;stroke-dasharray:none;stroke-dashoffset:0.0000000;stroke-opacity:1.0000000;visibility:visible;display:inline;overflow:visible"
       d="M 405.68728,276.33057 L 417.44406,260.59164 L 389.69553,260.52844 L 377.93875,276.26736 L 405.68728,276.33057 z "
       id="path2184"
       sodipodi:nodetypes="ccccc"
       inkscape:export-filename="/home/dcaliste/developpement/v_sim/v_sim-dev/pixmaps/stock-one-light_20.png"
       inkscape:export-xdpi="22.000000"
       inkscape:export-ydpi="22.000000" />
    <path
       style="opacity:1.0000000;color:#000000;fill:#e3a35a;fill-opacity:0.79179811;fill-rule:evenodd;stroke:#000000;stroke-width:1.4029404;stroke-linecap:butt;stroke-linejoin:round;marker:none;marker-start:none;marker-mid:none;marker-end:none;stroke-miterlimit:4.0000000;stroke-dasharray:none;stroke-dashoffset:0.0000000;stroke-opacity:1.0000000;visibility:visible;display:inline;overflow:visible"
       d="M 405.81369,248.42402 L 417.63368,232.62188 L 417.63368,260.24400 L 405.94011,276.17255 L 405.81369,248.42402 z "
       id="path2179"
       sodipodi:nodetypes="ccccc"
       inkscape:export-filename="/home/dcaliste/developpement/v_sim/v_sim-dev/pixmaps/stock-one-light_20.png"
       inkscape:export-xdpi="22.000000"
       inkscape:export-ydpi="22.000000" />
    <rect
       y="248.27174"
       x="377.87814"
       height="27.935518"
       width="27.930738"
       id="rect2130"
       style="opacity:1.0000000;color:#000000;fill:#e3a35a;fill-opacity:0.79179811;fill-rule:evenodd;stroke:#000000;stroke-width:1.4029404;stroke-linecap:butt;stroke-linejoin:round;marker:none;marker-start:none;marker-mid:none;marker-end:none;stroke-miterlimit:4.0000000;stroke-dasharray:none;stroke-dashoffset:0.0000000;stroke-opacity:1.0000000;visibility:visible;display:inline;overflow:visible"
       inkscape:export-filename="/home/dcaliste/developpement/v_sim/v_sim-dev/pixmaps/stock-one-light_20.png"
       inkscape:export-xdpi="22.000000"
       inkscape:export-ydpi="22.000000" />
    <g
       id="g2381"
       transform="matrix(0.978424,0.206607,-0.206607,0.978424,64.99681,-86.30735)"
       inkscape:export-filename="/home/dcaliste/developpement/v_sim/v_sim-dev/pixmaps/stock-one-light_20.png"
       inkscape:export-xdpi="22.000000"
       inkscape:export-ydpi="22.000000">
      <path
         sodipodi:nodetypes="czz"
         id="path2116"
         d="M 432.48056,237.25485 C 432.22030,227.97808 451.90485,224.22036 439.84515,213.90165 C 427.68534,203.49871 426.80993,222.40596 416.17254,223.70063"
         style="fill:url(#linearGradient2385);fill-opacity:1.0000000;fill-rule:evenodd;stroke:#000000;stroke-width:1.7285154;stroke-linecap:butt;stroke-linejoin:miter;stroke-miterlimit:4.0000000;stroke-dasharray:none;stroke-opacity:1.0000000" />
      <path
         transform="matrix(-0.249083,-0.219817,0.230648,-0.261356,472.4145,400.8225)"
         d="m 507.16522,224.528 c 0,32.40651 -26.27067,58.67718 -58.67718,58.67718 -32.40652,0 -58.67719,-26.27067 -58.67719,-58.67718 0,-32.40651 26.27067,-58.67719 58.67719,-58.67719 32.40651,0 58.67718,26.27068 58.67718,58.67719 z"
         sodipodi:ry="58.677185"
         sodipodi:rx="58.677185"
         sodipodi:cy="224.52800"
         sodipodi:cx="448.48804"
         id="path1363"
         style="opacity:1.0000000;color:#000000;fill:url(#radialGradient2387);fill-opacity:1.0000000;fill-rule:evenodd;stroke:#000000;stroke-width:6.3655577;stroke-linecap:round;stroke-linejoin:miter;marker:none;marker-start:none;marker-mid:none;marker-end:none;stroke-miterlimit:4.0000000;stroke-dasharray:none;stroke-dashoffset:0.0000000;stroke-opacity:1.0000000;visibility:visible;display:inline;overflow:visible"
         sodipodi:type="arc" />
    </g>
    <path
       style="fill:url(#linearGradient2358);fill-opacity:1.0000000;fill-rule:evenodd;stroke:none;stroke-width:1.0000000px;stroke-linecap:butt;stroke-linejoin:miter;stroke-opacity:1.0000000"
       d="M 361.03927,239.10805 C 377.69128,235.87538 394.34329,232.64271 410.99531,229.41003 C 408.77754,241.81447 415.13012,247.45285 424.64018,245.64857 C 416.37056,260.75942 408.10094,275.87027 399.83132,290.98113"
       id="path2187"
       sodipodi:nodetypes="cccc"
       inkscape:export-filename="/home/dcaliste/developpement/v_sim/v_sim-dev/pixmaps/stock-one-light_20.png"
       inkscape:export-xdpi="22.000000"
       inkscape:export-ydpi="22.000000" />
    <rect
       y="224.38541"
       x="495.97882"
       height="27.935518"
       width="27.930738"
       id="rect2197"
       style="opacity:1.0000000;color:#000000;fill:#e3a35a;fill-opacity:0.79215688;fill-rule:evenodd;stroke:#000000;stroke-width:1.4030000;stroke-linecap:butt;stroke-linejoin:round;marker:none;marker-start:none;marker-mid:none;marker-end:none;stroke-miterlimit:4.0000000;stroke-dasharray:none;stroke-dashoffset:0.0000000;stroke-opacity:1.0000000;visibility:visible;display:inline;overflow:visible"
       inkscape:export-filename="/home/dcaliste/developpement/v_sim/v_sim-dev/pixmaps/stock-four-lights_20.png"
       inkscape:export-xdpi="22.299999"
       inkscape:export-ydpi="22.299999" />
    <path
       style="opacity:1.0000000;color:#000000;fill:#e3a35a;fill-opacity:0.79179811;fill-rule:evenodd;stroke:#000000;stroke-width:1.4029404;stroke-linecap:butt;stroke-linejoin:round;marker:none;marker-start:none;marker-mid:none;marker-end:none;stroke-miterlimit:4.0000000;stroke-dasharray:none;stroke-dashoffset:0.0000000;stroke-opacity:1.0000000;visibility:visible;display:inline;overflow:visible"
       d="M 484.13968,240.21074 L 495.95967,224.40860 L 495.95967,252.03072 L 484.26610,267.95927 L 484.13968,240.21074 z "
       id="path2199"
       sodipodi:nodetypes="ccccc"
       inkscape:export-filename="/home/dcaliste/developpement/v_sim/v_sim-dev/pixmaps/stock-four-lights_20.png"
       inkscape:export-xdpi="22.299999"
       inkscape:export-ydpi="22.299999" />
    <path
       style="opacity:1.0000000;color:#000000;fill:#e3a35a;fill-opacity:0.79179811;fill-rule:evenodd;stroke:#000000;stroke-width:1.4025000;stroke-linecap:butt;stroke-linejoin:round;marker:none;marker-start:none;marker-mid:none;marker-end:none;stroke-miterlimit:4.0000000;stroke-dasharray:none;stroke-dashoffset:0.0000000;stroke-opacity:1.0000000;visibility:visible;display:inline;overflow:visible"
       d="M 511.99883,240.23181 L 523.75561,224.49288 L 496.00708,224.42968 L 484.25030,240.16860 L 511.99883,240.23181 z "
       id="path2201"
       sodipodi:nodetypes="ccccc"
       inkscape:export-filename="/home/dcaliste/developpement/v_sim/v_sim-dev/pixmaps/stock-four-lights_20.png"
       inkscape:export-xdpi="22.299999"
       inkscape:export-ydpi="22.299999" />
    <path
       style="opacity:1.0000000;color:#000000;fill:#e3a35a;fill-opacity:0.79179811;fill-rule:evenodd;stroke:#000000;stroke-width:1.4025000;stroke-linecap:butt;stroke-linejoin:round;marker:none;marker-start:none;marker-mid:none;marker-end:none;stroke-miterlimit:4.0000000;stroke-dasharray:none;stroke-dashoffset:0.0000000;stroke-opacity:1.0000000;visibility:visible;display:inline;overflow:visible"
       d="M 511.99883,268.20157 L 523.75561,252.46264 L 496.00708,252.39944 L 484.25030,268.13836 L 511.99883,268.20157 z "
       id="path2203"
       sodipodi:nodetypes="ccccc"
       inkscape:export-filename="/home/dcaliste/developpement/v_sim/v_sim-dev/pixmaps/stock-four-lights_20.png"
       inkscape:export-xdpi="22.299999"
       inkscape:export-ydpi="22.299999" />
    <path
       style="opacity:1.0000000;color:#000000;fill:#e3a35a;fill-opacity:0.79179811;fill-rule:evenodd;stroke:#000000;stroke-width:1.4029404;stroke-linecap:butt;stroke-linejoin:round;marker:none;marker-start:none;marker-mid:none;marker-end:none;stroke-miterlimit:4.0000000;stroke-dasharray:none;stroke-dashoffset:0.0000000;stroke-opacity:1.0000000;visibility:visible;display:inline;overflow:visible"
       d="M 512.12524,240.29502 L 523.94523,224.49288 L 523.94523,252.11500 L 512.25166,268.04355 L 512.12524,240.29502 z "
       id="path2205"
       sodipodi:nodetypes="ccccc"
       inkscape:export-filename="/home/dcaliste/developpement/v_sim/v_sim-dev/pixmaps/stock-four-lights_20.png"
       inkscape:export-xdpi="22.299999"
       inkscape:export-ydpi="22.299999" />
    <rect
       y="240.14273"
       x="484.18970"
       height="27.935518"
       width="27.930738"
       id="rect2207"
       style="opacity:1.0000000;color:#000000;fill:#e3a35a;fill-opacity:0.79179811;fill-rule:evenodd;stroke:#000000;stroke-width:1.4029404;stroke-linecap:butt;stroke-linejoin:round;marker:none;marker-start:none;marker-mid:none;marker-end:none;stroke-miterlimit:4.0000000;stroke-dasharray:none;stroke-dashoffset:0.0000000;stroke-opacity:1.0000000;visibility:visible;display:inline;overflow:visible"
       inkscape:export-filename="/home/dcaliste/developpement/v_sim/v_sim-dev/pixmaps/stock-four-lights_20.png"
       inkscape:export-xdpi="22.299999"
       inkscape:export-ydpi="22.299999" />
    <g
       id="g2225"
       inkscape:export-filename="/home/dcaliste/developpement/v_sim/v_sim-dev/pixmaps/stock-four-lights_20.png"
       inkscape:export-xdpi="22.299999"
       inkscape:export-ydpi="22.299999"
       transform="matrix(-1.132026,0.000000,0.000000,1.132026,1067.051,-33.68162)"
       inkscape:tile-w="68.726877"
       inkscape:tile-h="66.238370"
       inkscape:tile-cx="494.56039"
       inkscape:tile-cy="244.48648">
      <g
         transform="translate(39.31422,-22.02878)"
         id="g2209">
        <g
           transform="translate(25.37821,3.234478)"
           id="g2211">
          <path
             sodipodi:nodetypes="czz"
             id="path2213"
             d="M 464.75802,250.17987 C 464.61597,245.11661 475.35979,243.06565 468.77761,237.43370 C 462.14079,231.75578 461.66299,242.07535 455.85711,242.78198"
             style="fill:url(#linearGradient2219);fill-opacity:1.0000000;fill-rule:evenodd;stroke:#000000;stroke-width:0.94342315;stroke-linecap:butt;stroke-linejoin:miter;stroke-miterlimit:4.0000000;stroke-dasharray:none;stroke-opacity:1.0000000" />
          <path
             transform="matrix(-0.109366,-9.651625e-2,0.101272,-0.114755,482.3998,320.4170)"
             d="m 507.16522,224.528 c 0,32.40651 -26.27067,58.67718 -58.67718,58.67718 -32.40652,0 -58.67719,-26.27067 -58.67719,-58.67718 0,-32.40651 26.27067,-58.67719 58.67719,-58.67719 32.40651,0 58.67718,26.27068 58.67718,58.67719 z"
             sodipodi:ry="58.677185"
             sodipodi:rx="58.677185"
             sodipodi:cy="224.52800"
             sodipodi:cx="448.48804"
             id="path2215"
             style="opacity:1.0000000;color:#000000;fill:url(#radialGradient2221);fill-opacity:1.0000000;fill-rule:evenodd;stroke:#000000;stroke-width:6.3655577;stroke-linecap:round;stroke-linejoin:miter;marker:none;marker-start:none;marker-mid:none;marker-end:none;stroke-miterlimit:4.0000000;stroke-dasharray:none;stroke-dashoffset:0.0000000;stroke-opacity:1.0000000;visibility:visible;display:inline;overflow:visible"
             sodipodi:type="arc" />
        </g>
      </g>
      <path
         sodipodi:nodetypes="cccc"
         id="path2217"
         d="M 475.36644,233.86291 C 488.56641,231.30039 501.76638,228.73787 514.96635,226.17534 C 513.20834,236.00828 518.24400,240.47780 525.78258,239.04755 C 519.22729,251.02585 512.67200,263.00415 506.11671,274.98245"
         style="fill:url(#linearGradient2223);fill-opacity:1.0000000;fill-rule:evenodd;stroke:none;stroke-width:1.0000000px;stroke-linecap:butt;stroke-linejoin:miter;stroke-opacity:1.0000000" />
    </g>
    <use
       x="0"
       y="0"
       inkscape:tiled-clone-of="#g2225"
       xlink:href="#g2225"
       id="use2349"
       inkscape:export-filename="/home/dcaliste/developpement/v_sim/v_sim-dev/pixmaps/stock-four-lights_20.png"
       inkscape:export-xdpi="22.299999"
       inkscape:export-ydpi="22.299999" />
    <use
       x="0"
       y="0"
       inkscape:tiled-clone-of="#g2225"
       xlink:href="#g2225"
       transform="matrix(6.123032e-17,-1.000000,1.000000,6.123032e-17,250.0739,752.2945)"
       id="use2351"
       inkscape:export-filename="/home/dcaliste/developpement/v_sim/v_sim-dev/pixmaps/stock-four-lights_20.png"
       inkscape:export-xdpi="22.299999"
       inkscape:export-ydpi="22.299999" />
    <use
       x="0"
       y="0"
       inkscape:tiled-clone-of="#g2225"
       xlink:href="#g2225"
       transform="matrix(6.123032e-17,1.000000,-1.000000,6.123032e-17,752.7922,-250.0739)"
       id="use2353"
       inkscape:export-filename="/home/dcaliste/developpement/v_sim/v_sim-dev/pixmaps/stock-four-lights_20.png"
       inkscape:export-xdpi="22.299999"
       inkscape:export-ydpi="22.299999" />
    <use
       x="0.0000000"
       y="0.0000000"
       inkscape:tiled-clone-of="#g2225"
       xlink:href="#g2225"
       transform="matrix(-1.000000,0.000000,0.000000,-1.000000,1002.866,502.2206)"
       id="use2355"
       width="744.09448"
       height="1052.3622"
       inkscape:export-filename="/home/dcaliste/developpement/v_sim/v_sim-dev/pixmaps/stock-four-lights_20.png"
       inkscape:export-xdpi="22.299999"
       inkscape:export-ydpi="22.299999" />
    <path
       style="fill:url(#linearGradient2191);fill-opacity:1;fill-rule:evenodd;stroke:black;stroke-width:1.40294003;stroke-linejoin:round"
       d="M 256.35438,525.19821 C 253.15328,526.28073 250.79038,529.76069 250.80504,531.7387 L 245.87702,531.7387 L 245.87702,543.9887 L 256.28079,543.9887"
       id="path2189"
       sodipodi:nodetypes="ccccc"
       inkscape:export-filename="/home/sp2m_l_sim/caliste/developpement/v_sim-dev/pixmaps/stock-masking.png"
       inkscape:export-xdpi="48.871601"
       inkscape:export-ydpi="48.871601" />
    <path
       style="fill:black;fill-opacity:1;fill-rule:evenodd;stroke:black;stroke-width:0.40951696px;stroke-linecap:butt;stroke-linejoin:round;stroke-opacity:1"
       d="M 247.05214,537.96598 C 247.61162,539.52451 248.55908,541.91428 249.81775,541.91428 C 251.50783,541.91428 253.12947,535.95562 255.95017,533.15624 C 253.59541,535.20595 251.17959,539.37307 249.81775,539.40891 C 248.94097,539.43198 247.73242,538.75758 247.05214,537.96598 z "
       id="path3096"
       sodipodi:nodetypes="cccsc"
       inkscape:export-filename="/home/sp2m_l_sim/caliste/developpement/v_sim-dev/pixmaps/stock-masking.png"
       inkscape:export-xdpi="48.871601"
       inkscape:export-ydpi="48.871601" />
    <path
       style="opacity:1;color:black;fill:white;fill-opacity:0.56470591;fill-rule:nonzero;stroke:#4b4b4b;stroke-width:2.1500001;stroke-linecap:butt;stroke-linejoin:miter;marker:none;marker-start:none;marker-mid:none;marker-end:none;stroke-miterlimit:4;stroke-dasharray:none;stroke-dashoffset:0;stroke-opacity:1;visibility:visible;display:inline;overflow:visible"
       d="M 256.32841,522.16029 L 263.45163,523.61804 L 263.36262,548.80786 L 256.20859,547.09363"
       id="path3109"
       sodipodi:nodetypes="cccc"
       inkscape:export-filename="/home/sp2m_l_sim/caliste/developpement/v_sim-dev/pixmaps/stock-masking.png"
       inkscape:export-xdpi="48.871601"
       inkscape:export-ydpi="48.871601" />
  </g>
</svg>
